%YAML 1.1
%TAG !u! tag:unity3d.com,2011:
--- !u!1 &360977084204105550
GameObject:
  m_ObjectHideFlags: 0
  m_CorrespondingSourceObject: {fileID: 0}
  m_PrefabInstance: {fileID: 0}
  m_PrefabAsset: {fileID: 0}
  serializedVersion: 6
  m_Component:
  - component: {fileID: 3299854918683203831}
  - component: {fileID: 2829781619243174642}
  m_Layer: 0
  m_Name: Mask.002
  m_TagString: Untagged
  m_Icon: {fileID: 0}
  m_NavMeshLayer: 0
  m_StaticEditorFlags: 0
  m_IsActive: 1
--- !u!4 &3299854918683203831
Transform:
  m_ObjectHideFlags: 0
  m_CorrespondingSourceObject: {fileID: 0}
  m_PrefabInstance: {fileID: 0}
  m_PrefabAsset: {fileID: 0}
  m_GameObject: {fileID: 360977084204105550}
  m_LocalRotation: {x: -0.7071068, y: 0, z: -0, w: 0.7071067}
  m_LocalPosition: {x: -0, y: 1.7414914, z: 0.031160891}
  m_LocalScale: {x: 0.9095092, y: 0.9095092, z: 0.9095092}
  m_Children: []
  m_Father: {fileID: 7749343134778628953}
  m_RootOrder: 3
  m_LocalEulerAnglesHint: {x: 0, y: 0, z: 0}
--- !u!137 &2829781619243174642
SkinnedMeshRenderer:
  m_ObjectHideFlags: 0
  m_CorrespondingSourceObject: {fileID: 0}
  m_PrefabInstance: {fileID: 0}
  m_PrefabAsset: {fileID: 0}
  m_GameObject: {fileID: 360977084204105550}
  m_Enabled: 1
  m_CastShadows: 1
  m_ReceiveShadows: 1
  m_DynamicOccludee: 1
  m_MotionVectors: 1
  m_LightProbeUsage: 1
  m_ReflectionProbeUsage: 1
  m_RayTracingMode: 0
  m_RayTraceProcedural: 0
  m_RenderingLayerMask: 1
  m_RendererPriority: 0
  m_Materials:
  - {fileID: 2100000, guid: 91db53b41c7644c1d820a0ad3485e395, type: 2}
  m_StaticBatchInfo:
    firstSubMesh: 0
    subMeshCount: 0
  m_StaticBatchRoot: {fileID: 0}
  m_ProbeAnchor: {fileID: 0}
  m_LightProbeVolumeOverride: {fileID: 0}
  m_ScaleInLightmap: 1
  m_ReceiveGI: 1
  m_PreserveUVs: 0
  m_IgnoreNormalsForChartDetection: 0
  m_ImportantGI: 0
  m_StitchLightmapSeams: 1
  m_SelectedEditorRenderState: 3
  m_MinimumChartSize: 4
  m_AutoUVMaxDistance: 0.5
  m_AutoUVMaxAngle: 89
  m_LightmapParameters: {fileID: 0}
  m_SortingLayerID: 0
  m_SortingLayer: 0
  m_SortingOrder: 0
  serializedVersion: 2
  m_Quality: 0
  m_UpdateWhenOffscreen: 0
  m_SkinnedMotionVectors: 1
  m_Mesh: {fileID: 5414684396191486754, guid: 83dc921c59cee4082b7dfb32719ccec7, type: 3}
  m_Bones:
  - {fileID: 5828698209538038066}
  - {fileID: 5417536005890161226}
  - {fileID: 3280743783688964390}
  - {fileID: 8699463273701037552}
  - {fileID: 133517025814392136}
  - {fileID: 210702961065160822}
  - {fileID: 5602066034356823577}
  - {fileID: 5392137450963894000}
  - {fileID: 3208264330009159849}
  - {fileID: 2077156754814590174}
  - {fileID: 9040120552218890917}
  - {fileID: 3702563660950186605}
  - {fileID: 1320879986464192956}
  - {fileID: 5650519635585971136}
  - {fileID: 5426585496995807}
  - {fileID: 2243799993906558807}
  - {fileID: 3653203751797412214}
  - {fileID: 8620414668772967044}
  - {fileID: 3916790606830204072}
  - {fileID: 328621767627409237}
  - {fileID: 4333234300733660731}
  - {fileID: 1078955762103422717}
  - {fileID: 8771808958525792561}
  - {fileID: 157742441544746274}
  - {fileID: 2239533917118202851}
  - {fileID: 7453870547243344677}
  - {fileID: 8537787390657340478}
  - {fileID: 6113597760971919278}
  - {fileID: 1000592449780125502}
  - {fileID: 4349735510140366902}
  - {fileID: 3144211718034880611}
  - {fileID: 1229591258663715850}
  - {fileID: 145259490459684320}
  - {fileID: 6111906966377020176}
  - {fileID: 5595280706031288139}
  - {fileID: 4510544373113724293}
  - {fileID: 6317937332051744339}
  - {fileID: 987554312916593278}
  - {fileID: 1743169755286108522}
  - {fileID: 2821418345841097009}
  - {fileID: 8110503261728180327}
  - {fileID: 3725958880842320059}
  - {fileID: 6769964815219289841}
  - {fileID: 4731895151806923953}
  - {fileID: 5272611438171085523}
  - {fileID: 5093707629978848723}
  - {fileID: 8527897779660106623}
  - {fileID: 4497044178823981840}
  - {fileID: 6446984285284226017}
  m_BlendShapeWeights: []
  m_RootBone: {fileID: 5828698209538038066}
  m_AABB:
    m_Center: {x: -0.000000029802322, y: 0.7890941, z: -0.13510373}
    m_Extent: {x: 0.1460212, y: 0.06616849, z: 0.14915869}
  m_DirtyAABB: 0
--- !u!1 &380959711536212509
GameObject:
  m_ObjectHideFlags: 0
  m_CorrespondingSourceObject: {fileID: 0}
  m_PrefabInstance: {fileID: 0}
  m_PrefabAsset: {fileID: 0}
  serializedVersion: 6
  m_Component:
  - component: {fileID: 5595280706031288139}
  m_Layer: 0
  m_Name: f_pinky.01.R
  m_TagString: Untagged
  m_Icon: {fileID: 0}
  m_NavMeshLayer: 0
  m_StaticEditorFlags: 0
  m_IsActive: 1
--- !u!4 &5595280706031288139
Transform:
  m_ObjectHideFlags: 0
  m_CorrespondingSourceObject: {fileID: 0}
  m_PrefabInstance: {fileID: 0}
  m_PrefabAsset: {fileID: 0}
  m_GameObject: {fileID: 380959711536212509}
  m_LocalRotation: {x: 0.23099588, y: -0.0792, z: 0.043772127, w: 0.9687375}
  m_LocalPosition: {x: -0.000018356368, y: 0.061445452, z: 0.0019023919}
  m_LocalScale: {x: 0.99999994, y: 0.99999994, z: 0.99999994}
  m_Children:
  - {fileID: 4510544373113724293}
  m_Father: {fileID: 6111906966377020176}
  m_RootOrder: 0
  m_LocalEulerAnglesHint: {x: 0, y: 0, z: 0}
--- !u!1 &448374271844205102
GameObject:
  m_ObjectHideFlags: 0
  m_CorrespondingSourceObject: {fileID: 0}
  m_PrefabInstance: {fileID: 0}
  m_PrefabAsset: {fileID: 0}
  serializedVersion: 6
  m_Component:
  - component: {fileID: 2239533917118202851}
  m_Layer: 0
  m_Name: forearm.R
  m_TagString: Untagged
  m_Icon: {fileID: 0}
  m_NavMeshLayer: 0
  m_StaticEditorFlags: 0
  m_IsActive: 1
--- !u!4 &2239533917118202851
Transform:
  m_ObjectHideFlags: 0
  m_CorrespondingSourceObject: {fileID: 0}
  m_PrefabInstance: {fileID: 0}
  m_PrefabAsset: {fileID: 0}
  m_GameObject: {fileID: 448374271844205102}
  m_LocalRotation: {x: 0.07153254, y: 0.006295122, z: -0.05262254, w: 0.9960293}
  m_LocalPosition: {x: 0.00000016944978, y: 0.2955118, z: -0.000000009313226}
  m_LocalScale: {x: 0.99999994, y: 0.99999994, z: 1}
  m_Children:
  - {fileID: 7453870547243344677}
  m_Father: {fileID: 157742441544746274}
  m_RootOrder: 0
  m_LocalEulerAnglesHint: {x: 0, y: 0, z: 0}
--- !u!1 &778887926666397688
GameObject:
  m_ObjectHideFlags: 0
  m_CorrespondingSourceObject: {fileID: 0}
  m_PrefabInstance: {fileID: 0}
  m_PrefabAsset: {fileID: 0}
  serializedVersion: 6
  m_Component:
  - component: {fileID: 2077156754814590174}
  m_Layer: 0
  m_Name: forearm.L
  m_TagString: Untagged
  m_Icon: {fileID: 0}
  m_NavMeshLayer: 0
  m_StaticEditorFlags: 0
  m_IsActive: 1
--- !u!4 &2077156754814590174
Transform:
  m_ObjectHideFlags: 0
  m_CorrespondingSourceObject: {fileID: 0}
  m_PrefabInstance: {fileID: 0}
  m_PrefabAsset: {fileID: 0}
  m_GameObject: {fileID: 778887926666397688}
  m_LocalRotation: {x: 0.07153254, y: -0.006295122, z: 0.05262254, w: 0.9960293}
  m_LocalPosition: {x: -0.00000016944978, y: 0.2955118, z: -0.000000009313226}
  m_LocalScale: {x: 0.99999994, y: 0.99999994, z: 1}
  m_Children:
  - {fileID: 9040120552218890917}
  m_Father: {fileID: 3208264330009159849}
  m_RootOrder: 0
  m_LocalEulerAnglesHint: {x: 0, y: 0, z: 0}
--- !u!1 &794557458949602580
GameObject:
  m_ObjectHideFlags: 0
  m_CorrespondingSourceObject: {fileID: 0}
  m_PrefabInstance: {fileID: 0}
  m_PrefabAsset: {fileID: 0}
  serializedVersion: 6
  m_Component:
  - component: {fileID: 157742441544746274}
  m_Layer: 0
  m_Name: upper_arm.R
  m_TagString: Untagged
  m_Icon: {fileID: 0}
  m_NavMeshLayer: 0
  m_StaticEditorFlags: 0
  m_IsActive: 1
--- !u!4 &157742441544746274
Transform:
  m_ObjectHideFlags: 0
  m_CorrespondingSourceObject: {fileID: 0}
  m_PrefabInstance: {fileID: 0}
  m_PrefabAsset: {fileID: 0}
  m_GameObject: {fileID: 794557458949602580}
  m_LocalRotation: {x: -0.072080225, y: 0.7375933, z: -0.15141052, w: 0.6540913}
  m_LocalPosition: {x: 0.00018166006, y: 0.23769847, z: 0.001988292}
  m_LocalScale: {x: 1, y: 1, z: 0.99999994}
  m_Children:
  - {fileID: 2239533917118202851}
  m_Father: {fileID: 8771808958525792561}
  m_RootOrder: 0
  m_LocalEulerAnglesHint: {x: 0, y: 0, z: 0}
--- !u!1 &799718377904961563
GameObject:
  m_ObjectHideFlags: 0
  m_CorrespondingSourceObject: {fileID: 0}
  m_PrefabInstance: {fileID: 0}
  m_PrefabAsset: {fileID: 0}
  serializedVersion: 6
  m_Component:
  - component: {fileID: 4333234300733660731}
  m_Layer: 0
  m_Name: f_pinky.02.L
  m_TagString: Untagged
  m_Icon: {fileID: 0}
  m_NavMeshLayer: 0
  m_StaticEditorFlags: 0
  m_IsActive: 1
--- !u!4 &4333234300733660731
Transform:
  m_ObjectHideFlags: 0
  m_CorrespondingSourceObject: {fileID: 0}
  m_PrefabInstance: {fileID: 0}
  m_PrefabAsset: {fileID: 0}
  m_GameObject: {fileID: 799718377904961563}
  m_LocalRotation: {x: 0.035713427, y: 0.012252149, z: -0.012312063, w: 0.99921113}
  m_LocalPosition: {x: -0.000000026077032, y: 0.025331724, z: -0.000000011641532}
  m_LocalScale: {x: 0.99999994, y: 0.99999994, z: 1}
  m_Children:
  - {fileID: 1078955762103422717}
  m_Father: {fileID: 328621767627409237}
  m_RootOrder: 0
  m_LocalEulerAnglesHint: {x: 0, y: 0, z: 0}
--- !u!1 &1300205696316760552
GameObject:
  m_ObjectHideFlags: 0
  m_CorrespondingSourceObject: {fileID: 0}
  m_PrefabInstance: {fileID: 0}
  m_PrefabAsset: {fileID: 0}
  serializedVersion: 6
  m_Component:
  - component: {fileID: 4497044178823981840}
  m_Layer: 0
  m_Name: toe.R
  m_TagString: Untagged
  m_Icon: {fileID: 0}
  m_NavMeshLayer: 0
  m_StaticEditorFlags: 0
  m_IsActive: 1
--- !u!4 &4497044178823981840
Transform:
  m_ObjectHideFlags: 0
  m_CorrespondingSourceObject: {fileID: 0}
  m_PrefabInstance: {fileID: 0}
  m_PrefabAsset: {fileID: 0}
  m_GameObject: {fileID: 1300205696316760552}
  m_LocalRotation: {x: -0.000000017725908, y: 0.96124893, z: -0.27568185, w: 0.000000083625174}
  m_LocalPosition: {x: -1.781103e-11, y: 0.12092689, z: -0.0000000018900586}
  m_LocalScale: {x: 1, y: 1.0000001, z: 1}
  m_Children: []
  m_Father: {fileID: 8527897779660106623}
  m_RootOrder: 1
  m_LocalEulerAnglesHint: {x: 0, y: 0, z: 0}
--- !u!1 &1512915609303428818
GameObject:
  m_ObjectHideFlags: 0
  m_CorrespondingSourceObject: {fileID: 0}
  m_PrefabInstance: {fileID: 0}
  m_PrefabAsset: {fileID: 0}
  serializedVersion: 6
  m_Component:
  - component: {fileID: 3144211718034880611}
  m_Layer: 0
  m_Name: thumb.01.R
  m_TagString: Untagged
  m_Icon: {fileID: 0}
  m_NavMeshLayer: 0
  m_StaticEditorFlags: 0
  m_IsActive: 1
--- !u!4 &3144211718034880611
Transform:
  m_ObjectHideFlags: 0
  m_CorrespondingSourceObject: {fileID: 0}
  m_PrefabInstance: {fileID: 0}
  m_PrefabAsset: {fileID: 0}
  m_GameObject: {fileID: 1512915609303428818}
  m_LocalRotation: {x: 0.030364947, y: 0.6926001, z: 0.3106001, w: 0.65031594}
  m_LocalPosition: {x: -0.008879852, y: 0.008649718, z: 0.02720593}
  m_LocalScale: {x: 0.99999994, y: 0.99999994, z: 1}
  m_Children:
  - {fileID: 1229591258663715850}
  m_Father: {fileID: 8537787390657340478}
  m_RootOrder: 1
  m_LocalEulerAnglesHint: {x: 0, y: 0, z: 0}
--- !u!1 &1803329587337389703
GameObject:
  m_ObjectHideFlags: 0
  m_CorrespondingSourceObject: {fileID: 0}
  m_PrefabInstance: {fileID: 0}
  m_PrefabAsset: {fileID: 0}
  serializedVersion: 6
  m_Component:
  - component: {fileID: 180477166328524344}
  m_Layer: 0
  m_Name: spawner
  m_TagString: Untagged
  m_Icon: {fileID: 0}
  m_NavMeshLayer: 0
  m_StaticEditorFlags: 0
  m_IsActive: 1
--- !u!4 &180477166328524344
Transform:
  m_ObjectHideFlags: 0
  m_CorrespondingSourceObject: {fileID: 0}
  m_PrefabInstance: {fileID: 0}
  m_PrefabAsset: {fileID: 0}
  m_GameObject: {fileID: 1803329587337389703}
  m_LocalRotation: {x: -0, y: -0, z: -0, w: 1}
  m_LocalPosition: {x: -0.03, y: 1.288098, z: 0.484}
  m_LocalScale: {x: 1, y: 1, z: 1}
  m_Children: []
  m_Father: {fileID: 7749343134778628953}
  m_RootOrder: 4
  m_LocalEulerAnglesHint: {x: 0, y: 0, z: 0}
--- !u!1 &2158329746007417133
GameObject:
  m_ObjectHideFlags: 0
  m_CorrespondingSourceObject: {fileID: 0}
  m_PrefabInstance: {fileID: 0}
  m_PrefabAsset: {fileID: 0}
  serializedVersion: 6
  m_Component:
  - component: {fileID: 8620414668772967044}
  m_Layer: 0
  m_Name: thumb.03.L
  m_TagString: Untagged
  m_Icon: {fileID: 0}
  m_NavMeshLayer: 0
  m_StaticEditorFlags: 0
  m_IsActive: 1
--- !u!4 &8620414668772967044
Transform:
  m_ObjectHideFlags: 0
  m_CorrespondingSourceObject: {fileID: 0}
  m_PrefabInstance: {fileID: 0}
  m_PrefabAsset: {fileID: 0}
  m_GameObject: {fileID: 2158329746007417133}
  m_LocalRotation: {x: 0.017640335, y: -0.0037295588, z: 0.040652744, w: 0.9990107}
  m_LocalPosition: {x: -0.00000015553087, y: 0.025493583, z: 0.000000048428774}
  m_LocalScale: {x: 0.9999998, y: 0.99999994, z: 1}
  m_Children: []
  m_Father: {fileID: 3653203751797412214}
  m_RootOrder: 0
  m_LocalEulerAnglesHint: {x: 0, y: 0, z: 0}
--- !u!1 &2656373161908630813
GameObject:
  m_ObjectHideFlags: 0
  m_CorrespondingSourceObject: {fileID: 0}
  m_PrefabInstance: {fileID: 0}
  m_PrefabAsset: {fileID: 0}
  serializedVersion: 6
  m_Component:
  - component: {fileID: 210702961065160822}
  m_Layer: 0
  m_Name: spine.005
  m_TagString: Untagged
  m_Icon: {fileID: 0}
  m_NavMeshLayer: 0
  m_StaticEditorFlags: 0
  m_IsActive: 1
--- !u!4 &210702961065160822
Transform:
  m_ObjectHideFlags: 0
  m_CorrespondingSourceObject: {fileID: 0}
  m_PrefabInstance: {fileID: 0}
  m_PrefabAsset: {fileID: 0}
  m_GameObject: {fileID: 2656373161908630813}
  m_LocalRotation: {x: -0.17500436, y: 3.0361832e-15, z: 0.000000041724295, w: 0.98456764}
  m_LocalPosition: {x: 3.910455e-15, y: 0.04847758, z: 0.000000022351742}
  m_LocalScale: {x: 1, y: 1.0000001, z: 0.99999994}
  m_Children:
  - {fileID: 5602066034356823577}
  m_Father: {fileID: 133517025814392136}
  m_RootOrder: 0
  m_LocalEulerAnglesHint: {x: 0, y: 0, z: 0}
--- !u!1 &2704151109932427975
GameObject:
  m_ObjectHideFlags: 0
  m_CorrespondingSourceObject: {fileID: 0}
  m_PrefabInstance: {fileID: 0}
  m_PrefabAsset: {fileID: 0}
  serializedVersion: 6
  m_Component:
  - component: {fileID: 987554312916593278}
  m_Layer: 0
  m_Name: pelvis.L
  m_TagString: Untagged
  m_Icon: {fileID: 0}
  m_NavMeshLayer: 0
  m_StaticEditorFlags: 0
  m_IsActive: 1
--- !u!4 &987554312916593278
Transform:
  m_ObjectHideFlags: 0
  m_CorrespondingSourceObject: {fileID: 0}
  m_PrefabInstance: {fileID: 0}
  m_PrefabAsset: {fileID: 0}
  m_GameObject: {fileID: 2704151109932427975}
  m_LocalRotation: {x: -0.166477, y: 0.7407561, z: 0.48650497, w: 0.43229467}
  m_LocalPosition: {x: 0.0000000016779147, y: -0.025317295, z: 0.0070376955}
  m_LocalScale: {x: 1.0000001, y: 0.99999994, z: 1}
  m_Children: []
  m_Father: {fileID: 5828698209538038066}
  m_RootOrder: 0
  m_LocalEulerAnglesHint: {x: 0, y: 0, z: 0}
--- !u!1 &2725783623467625583
GameObject:
  m_ObjectHideFlags: 0
  m_CorrespondingSourceObject: {fileID: 0}
  m_PrefabInstance: {fileID: 0}
  m_PrefabAsset: {fileID: 0}
  serializedVersion: 6
  m_Component:
  - component: {fileID: 1078955762103422717}
  m_Layer: 0
  m_Name: f_pinky.03.L
  m_TagString: Untagged
  m_Icon: {fileID: 0}
  m_NavMeshLayer: 0
  m_StaticEditorFlags: 0
  m_IsActive: 1
--- !u!4 &1078955762103422717
Transform:
  m_ObjectHideFlags: 0
  m_CorrespondingSourceObject: {fileID: 0}
  m_PrefabInstance: {fileID: 0}
  m_PrefabAsset: {fileID: 0}
  m_GameObject: {fileID: 2725783623467625583}
  m_LocalRotation: {x: 0.086635634, y: 0.02327926, z: 0.038325995, w: 0.9952304}
  m_LocalPosition: {x: -0.000000018626451, y: 0.01905443, z: -0.000000035390258}
  m_LocalScale: {x: 0.99999994, y: 1, z: 0.99999994}
  m_Children: []
  m_Father: {fileID: 4333234300733660731}
  m_RootOrder: 0
  m_LocalEulerAnglesHint: {x: 0, y: 0, z: 0}
--- !u!1 &2735028037605197387
GameObject:
  m_ObjectHideFlags: 0
  m_CorrespondingSourceObject: {fileID: 0}
  m_PrefabInstance: {fileID: 0}
  m_PrefabAsset: {fileID: 0}
  serializedVersion: 6
  m_Component:
  - component: {fileID: 6769964815219289841}
  m_Layer: 0
  m_Name: toe.L
  m_TagString: Untagged
  m_Icon: {fileID: 0}
  m_NavMeshLayer: 0
  m_StaticEditorFlags: 0
  m_IsActive: 1
--- !u!4 &6769964815219289841
Transform:
  m_ObjectHideFlags: 0
  m_CorrespondingSourceObject: {fileID: 0}
  m_PrefabInstance: {fileID: 0}
  m_PrefabAsset: {fileID: 0}
  m_GameObject: {fileID: 2735028037605197387}
  m_LocalRotation: {x: -0.000000017573583, y: 0.96124893, z: -0.27568185, w: 0.00000008358149}
  m_LocalPosition: {x: 1.7811017e-11, y: 0.120926894, z: -0.0000000018901696}
  m_LocalScale: {x: 1, y: 1.0000001, z: 1}
  m_Children: []
  m_Father: {fileID: 3725958880842320059}
  m_RootOrder: 1
  m_LocalEulerAnglesHint: {x: 0, y: 0, z: 0}
--- !u!1 &2851000939937685141
GameObject:
  m_ObjectHideFlags: 0
  m_CorrespondingSourceObject: {fileID: 0}
  m_PrefabInstance: {fileID: 0}
  m_PrefabAsset: {fileID: 0}
  serializedVersion: 6
  m_Component:
  - component: {fileID: 5650519635585971136}
  m_Layer: 0
  m_Name: f_index.02.L
  m_TagString: Untagged
  m_Icon: {fileID: 0}
  m_NavMeshLayer: 0
  m_StaticEditorFlags: 0
  m_IsActive: 1
--- !u!4 &5650519635585971136
Transform:
  m_ObjectHideFlags: 0
  m_CorrespondingSourceObject: {fileID: 0}
  m_PrefabInstance: {fileID: 0}
  m_PrefabAsset: {fileID: 0}
  m_GameObject: {fileID: 2851000939937685141}
  m_LocalRotation: {x: 0.078255385, y: 0.004499776, z: 0.0054050167, w: 0.99690855}
  m_LocalPosition: {x: -0.000000007450581, y: 0.036529817, z: 0.00000014482066}
  m_LocalScale: {x: 0.9999999, y: 1, z: 1}
  m_Children:
  - {fileID: 5426585496995807}
  m_Father: {fileID: 1320879986464192956}
  m_RootOrder: 0
  m_LocalEulerAnglesHint: {x: 0, y: 0, z: 0}
--- !u!1 &2881150820129596217
GameObject:
  m_ObjectHideFlags: 0
  m_CorrespondingSourceObject: {fileID: 0}
  m_PrefabInstance: {fileID: 0}
  m_PrefabAsset: {fileID: 0}
  serializedVersion: 6
  m_Component:
  - component: {fileID: 7453870547243344677}
  m_Layer: 0
  m_Name: hand.R
  m_TagString: Untagged
  m_Icon: {fileID: 0}
  m_NavMeshLayer: 0
  m_StaticEditorFlags: 0
  m_IsActive: 1
--- !u!4 &7453870547243344677
Transform:
  m_ObjectHideFlags: 0
  m_CorrespondingSourceObject: {fileID: 0}
  m_PrefabInstance: {fileID: 0}
  m_PrefabAsset: {fileID: 0}
  m_GameObject: {fileID: 2881150820129596217}
  m_LocalRotation: {x: 0.028931385, y: -0.0024736014, z: -0.0009805914, w: 0.9995779}
  m_LocalPosition: {x: -0.000000057305442, y: 0.24387196, z: -9.313226e-10}
  m_LocalScale: {x: 1, y: 0.9999999, z: 1}
  m_Children:
  - {fileID: 8537787390657340478}
  - {fileID: 6111906966377020176}
  m_Father: {fileID: 2239533917118202851}
  m_RootOrder: 0
  m_LocalEulerAnglesHint: {x: 0, y: 0, z: 0}
--- !u!1 &2933833545891260192
GameObject:
  m_ObjectHideFlags: 0
  m_CorrespondingSourceObject: {fileID: 0}
  m_PrefabInstance: {fileID: 0}
  m_PrefabAsset: {fileID: 0}
  serializedVersion: 6
  m_Component:
  - component: {fileID: 5417536005890161226}
  m_Layer: 0
  m_Name: spine.001
  m_TagString: Untagged
  m_Icon: {fileID: 0}
  m_NavMeshLayer: 0
  m_StaticEditorFlags: 0
  m_IsActive: 1
--- !u!4 &5417536005890161226
Transform:
  m_ObjectHideFlags: 0
  m_CorrespondingSourceObject: {fileID: 0}
  m_PrefabInstance: {fileID: 0}
  m_PrefabAsset: {fileID: 0}
  m_GameObject: {fileID: 2933833545891260192}
  m_LocalRotation: {x: -0.07832031, y: -2.7377396e-14, z: 0.000000018673013, w: 0.9969283}
  m_LocalPosition: {x: 6.3842127e-15, y: 0.13275188, z: 0.00000003259629}
  m_LocalScale: {x: 1, y: 0.9999999, z: 1}
  m_Children:
  - {fileID: 3280743783688964390}
  m_Father: {fileID: 5828698209538038066}
  m_RootOrder: 2
  m_LocalEulerAnglesHint: {x: 0, y: 0, z: 0}
--- !u!1 &3076905322841460906
GameObject:
  m_ObjectHideFlags: 0
  m_CorrespondingSourceObject: {fileID: 0}
  m_PrefabInstance: {fileID: 0}
  m_PrefabAsset: {fileID: 0}
  serializedVersion: 6
  m_Component:
  - component: {fileID: 1000592449780125502}
  m_Layer: 0
  m_Name: f_index.02.R
  m_TagString: Untagged
  m_Icon: {fileID: 0}
  m_NavMeshLayer: 0
  m_StaticEditorFlags: 0
  m_IsActive: 1
--- !u!4 &1000592449780125502
Transform:
  m_ObjectHideFlags: 0
  m_CorrespondingSourceObject: {fileID: 0}
  m_PrefabInstance: {fileID: 0}
  m_PrefabAsset: {fileID: 0}
  m_GameObject: {fileID: 3076905322841460906}
  m_LocalRotation: {x: 0.078255385, y: -0.004499776, z: -0.0054050167, w: 0.99690855}
  m_LocalPosition: {x: 0.000000007450581, y: 0.036529817, z: 0.00000014482066}
  m_LocalScale: {x: 0.9999999, y: 1, z: 1}
  m_Children:
  - {fileID: 4349735510140366902}
  m_Father: {fileID: 6113597760971919278}
  m_RootOrder: 0
  m_LocalEulerAnglesHint: {x: 0, y: 0, z: 0}
--- !u!1 &3475360126629695710
GameObject:
  m_ObjectHideFlags: 0
  m_CorrespondingSourceObject: {fileID: 0}
  m_PrefabInstance: {fileID: 0}
  m_PrefabAsset: {fileID: 0}
  serializedVersion: 6
  m_Component:
  - component: {fileID: 8083669565482667913}
  m_Layer: 0
  m_Name: bulletSpawnPoint
  m_TagString: Untagged
  m_Icon: {fileID: 0}
  m_NavMeshLayer: 0
  m_StaticEditorFlags: 0
  m_IsActive: 1
--- !u!4 &8083669565482667913
Transform:
  m_ObjectHideFlags: 0
  m_CorrespondingSourceObject: {fileID: 0}
  m_PrefabInstance: {fileID: 0}
  m_PrefabAsset: {fileID: 0}
  m_GameObject: {fileID: 3475360126629695710}
  m_LocalRotation: {x: 0, y: 0, z: 0, w: 1}
  m_LocalPosition: {x: 0, y: -0.01, z: 0.318}
  m_LocalScale: {x: 1, y: 1, z: 1}
  m_Children: []
  m_Father: {fileID: 3280743783688964390}
  m_RootOrder: 1
  m_LocalEulerAnglesHint: {x: 0, y: 0, z: 0}
--- !u!1 &3836395592879329136
GameObject:
  m_ObjectHideFlags: 0
  m_CorrespondingSourceObject: {fileID: 0}
  m_PrefabInstance: {fileID: 0}
  m_PrefabAsset: {fileID: 0}
  serializedVersion: 6
  m_Component:
  - component: {fileID: 5093707629978848723}
  m_Layer: 0
  m_Name: shin.R
  m_TagString: Untagged
  m_Icon: {fileID: 0}
  m_NavMeshLayer: 0
  m_StaticEditorFlags: 0
  m_IsActive: 1
--- !u!4 &5093707629978848723
Transform:
  m_ObjectHideFlags: 0
  m_CorrespondingSourceObject: {fileID: 0}
  m_PrefabInstance: {fileID: 0}
  m_PrefabAsset: {fileID: 0}
  m_GameObject: {fileID: 3836395592879329136}
  m_LocalRotation: {x: 0.05647135, y: 0.00000012461278, z: -0.0000000017443563, w: 0.9984042}
  m_LocalPosition: {x: 0.0000000036168082, y: 0.43152693, z: 3.9239367e-10}
  m_LocalScale: {x: 1, y: 1, z: 0.99999994}
  m_Children:
  - {fileID: 8527897779660106623}
  m_Father: {fileID: 5272611438171085523}
  m_RootOrder: 0
  m_LocalEulerAnglesHint: {x: 0, y: 0, z: 0}
--- !u!1 &4273546850906147659
GameObject:
  m_ObjectHideFlags: 0
  m_CorrespondingSourceObject: {fileID: 0}
  m_PrefabInstance: {fileID: 0}
  m_PrefabAsset: {fileID: 0}
  serializedVersion: 6
  m_Component:
  - component: {fileID: 5602066034356823577}
  m_Layer: 0
  m_Name: spine.006
  m_TagString: Untagged
  m_Icon: {fileID: 0}
  m_NavMeshLayer: 0
  m_StaticEditorFlags: 0
  m_IsActive: 1
--- !u!4 &5602066034356823577
Transform:
  m_ObjectHideFlags: 0
  m_CorrespondingSourceObject: {fileID: 0}
  m_PrefabInstance: {fileID: 0}
  m_PrefabAsset: {fileID: 0}
  m_GameObject: {fileID: 4273546850906147659}
  m_LocalRotation: {x: -0.09268766, y: 0.00000011869609, z: 0.0000000110492335, w: 0.99569523}
  m_LocalPosition: {x: -1.4186155e-15, y: 0.04853208, z: 0.0000000018626451}
  m_LocalScale: {x: 1, y: 0.99999994, z: 0.99999994}
  m_Children: []
  m_Father: {fileID: 210702961065160822}
  m_RootOrder: 0
  m_LocalEulerAnglesHint: {x: 0, y: 0, z: 0}
--- !u!1 &4434613776046823948
GameObject:
  m_ObjectHideFlags: 0
  m_CorrespondingSourceObject: {fileID: 0}
  m_PrefabInstance: {fileID: 0}
  m_PrefabAsset: {fileID: 0}
  serializedVersion: 6
  m_Component:
  - component: {fileID: 1743169755286108522}
  m_Layer: 0
  m_Name: pelvis.R
  m_TagString: Untagged
  m_Icon: {fileID: 0}
  m_NavMeshLayer: 0
  m_StaticEditorFlags: 0
  m_IsActive: 1
--- !u!4 &1743169755286108522
Transform:
  m_ObjectHideFlags: 0
  m_CorrespondingSourceObject: {fileID: 0}
  m_PrefabInstance: {fileID: 0}
  m_PrefabAsset: {fileID: 0}
  m_GameObject: {fileID: 4434613776046823948}
  m_LocalRotation: {x: 0.16647722, y: 0.74075603, z: 0.48650494, w: -0.4322948}
  m_LocalPosition: {x: 0.0000000016779147, y: -0.025317295, z: 0.0070376955}
  m_LocalScale: {x: 0.99999994, y: 0.99999994, z: 1}
  m_Children: []
  m_Father: {fileID: 5828698209538038066}
  m_RootOrder: 1
  m_LocalEulerAnglesHint: {x: 0, y: 0, z: 0}
--- !u!1 &4476343645402071027
GameObject:
  m_ObjectHideFlags: 0
  m_CorrespondingSourceObject: {fileID: 0}
  m_PrefabInstance: {fileID: 0}
  m_PrefabAsset: {fileID: 0}
  serializedVersion: 6
  m_Component:
  - component: {fileID: 5426585496995807}
  m_Layer: 0
  m_Name: f_index.03.L
  m_TagString: Untagged
  m_Icon: {fileID: 0}
  m_NavMeshLayer: 0
  m_StaticEditorFlags: 0
  m_IsActive: 1
--- !u!4 &5426585496995807
Transform:
  m_ObjectHideFlags: 0
  m_CorrespondingSourceObject: {fileID: 0}
  m_PrefabInstance: {fileID: 0}
  m_PrefabAsset: {fileID: 0}
  m_GameObject: {fileID: 4476343645402071027}
  m_LocalRotation: {x: 0.11405652, y: 0.004970589, z: 0.030168794, w: 0.99300367}
  m_LocalPosition: {x: -0.0000000018626451, y: 0.022881731, z: -0.0000000011641532}
  m_LocalScale: {x: 1, y: 0.99999994, z: 1}
  m_Children: []
  m_Father: {fileID: 5650519635585971136}
  m_RootOrder: 0
  m_LocalEulerAnglesHint: {x: 0, y: 0, z: 0}
--- !u!1 &4583870243369033281
GameObject:
  m_ObjectHideFlags: 0
  m_CorrespondingSourceObject: {fileID: 0}
  m_PrefabInstance: {fileID: 0}
  m_PrefabAsset: {fileID: 0}
  serializedVersion: 6
  m_Component:
  - component: {fileID: 4525939442561872691}
  m_Layer: 0
  m_Name: Inflated man (bandit)
  m_TagString: Untagged
  m_Icon: {fileID: 0}
  m_NavMeshLayer: 0
  m_StaticEditorFlags: 0
  m_IsActive: 1
--- !u!4 &4525939442561872691
Transform:
  m_ObjectHideFlags: 0
  m_CorrespondingSourceObject: {fileID: 0}
  m_PrefabInstance: {fileID: 0}
  m_PrefabAsset: {fileID: 0}
  m_GameObject: {fileID: 4583870243369033281}
  m_LocalRotation: {x: -0.7071068, y: 0, z: -0, w: 0.7071067}
  m_LocalPosition: {x: -0, y: 0, z: 0}
  m_LocalScale: {x: 1, y: 1, z: 1}
  m_Children:
  - {fileID: 5828698209538038066}
  m_Father: {fileID: 7749343134778628953}
  m_RootOrder: 1
  m_LocalEulerAnglesHint: {x: 0, y: 0, z: 0}
--- !u!1 &4617662193544917101
GameObject:
  m_ObjectHideFlags: 0
  m_CorrespondingSourceObject: {fileID: 0}
  m_PrefabInstance: {fileID: 0}
  m_PrefabAsset: {fileID: 0}
  serializedVersion: 6
  m_Component:
  - component: {fileID: 9040120552218890917}
  m_Layer: 0
  m_Name: hand.L
  m_TagString: Untagged
  m_Icon: {fileID: 0}
  m_NavMeshLayer: 0
  m_StaticEditorFlags: 0
  m_IsActive: 1
--- !u!4 &9040120552218890917
Transform:
  m_ObjectHideFlags: 0
  m_CorrespondingSourceObject: {fileID: 0}
  m_PrefabInstance: {fileID: 0}
  m_PrefabAsset: {fileID: 0}
  m_GameObject: {fileID: 4617662193544917101}
  m_LocalRotation: {x: 0.028931385, y: 0.0024736014, z: 0.0009805914, w: 0.9995779}
  m_LocalPosition: {x: 0.000000057305442, y: 0.24387196, z: -9.313226e-10}
  m_LocalScale: {x: 1, y: 0.9999999, z: 1}
  m_Children:
  - {fileID: 3702563660950186605}
  - {fileID: 3916790606830204072}
  m_Father: {fileID: 2077156754814590174}
  m_RootOrder: 0
  m_LocalEulerAnglesHint: {x: 0, y: 0, z: 0}
--- !u!1 &4775304745724409861
GameObject:
  m_ObjectHideFlags: 0
  m_CorrespondingSourceObject: {fileID: 0}
  m_PrefabInstance: {fileID: 0}
  m_PrefabAsset: {fileID: 0}
  serializedVersion: 6
  m_Component:
  - component: {fileID: 5272611438171085523}
  m_Layer: 0
  m_Name: thigh.R
  m_TagString: Untagged
  m_Icon: {fileID: 0}
  m_NavMeshLayer: 0
  m_StaticEditorFlags: 0
  m_IsActive: 1
--- !u!4 &5272611438171085523
Transform:
  m_ObjectHideFlags: 0
  m_CorrespondingSourceObject: {fileID: 0}
  m_PrefabInstance: {fileID: 0}
  m_PrefabAsset: {fileID: 0}
  m_GameObject: {fileID: 4775304745724409861}
  m_LocalRotation: {x: 0.986991, y: 0.0000000043566484, z: -0.00000024171487, w: 0.16077587}
  m_LocalPosition: {x: 0.09169223, y: -0.0001880608, z: 0.04161587}
  m_LocalScale: {x: 1, y: 1, z: 0.99999744}
  m_Children:
  - {fileID: 5093707629978848723}
  m_Father: {fileID: 5828698209538038066}
  m_RootOrder: 4
  m_LocalEulerAnglesHint: {x: 0, y: 0, z: 0}
--- !u!1 &5015551149428442776
GameObject:
  m_ObjectHideFlags: 0
  m_CorrespondingSourceObject: {fileID: 0}
  m_PrefabInstance: {fileID: 0}
  m_PrefabAsset: {fileID: 0}
  serializedVersion: 6
  m_Component:
  - component: {fileID: 6113597760971919278}
  m_Layer: 0
  m_Name: f_index.01.R
  m_TagString: Untagged
  m_Icon: {fileID: 0}
  m_NavMeshLayer: 0
  m_StaticEditorFlags: 0
  m_IsActive: 1
--- !u!4 &6113597760971919278
Transform:
  m_ObjectHideFlags: 0
  m_CorrespondingSourceObject: {fileID: 0}
  m_PrefabInstance: {fileID: 0}
  m_PrefabAsset: {fileID: 0}
  m_GameObject: {fileID: 5015551149428442776}
  m_LocalRotation: {x: 0.16974075, y: 0.038696293, z: -0.068137825, w: 0.9823685}
  m_LocalPosition: {x: 0.000000007450581, y: 0.056459714, z: 0.00000005826587}
  m_LocalScale: {x: 0.99999994, y: 0.99999994, z: 0.9999999}
  m_Children:
  - {fileID: 1000592449780125502}
  m_Father: {fileID: 8537787390657340478}
  m_RootOrder: 0
  m_LocalEulerAnglesHint: {x: 0, y: 0, z: 0}
--- !u!1 &5093538369351832685
GameObject:
  m_ObjectHideFlags: 0
  m_CorrespondingSourceObject: {fileID: 0}
  m_PrefabInstance: {fileID: 0}
  m_PrefabAsset: {fileID: 0}
  serializedVersion: 6
  m_Component:
  - component: {fileID: 1320879986464192956}
  m_Layer: 0
  m_Name: f_index.01.L
  m_TagString: Untagged
  m_Icon: {fileID: 0}
  m_NavMeshLayer: 0
  m_StaticEditorFlags: 0
  m_IsActive: 1
--- !u!4 &1320879986464192956
Transform:
  m_ObjectHideFlags: 0
  m_CorrespondingSourceObject: {fileID: 0}
  m_PrefabInstance: {fileID: 0}
  m_PrefabAsset: {fileID: 0}
  m_GameObject: {fileID: 5093538369351832685}
  m_LocalRotation: {x: 0.16974075, y: -0.038696293, z: 0.068137825, w: 0.9823685}
  m_LocalPosition: {x: -0.000000007450581, y: 0.056459714, z: 0.00000005826587}
  m_LocalScale: {x: 0.99999994, y: 0.99999994, z: 0.9999999}
  m_Children:
  - {fileID: 5650519635585971136}
  m_Father: {fileID: 3702563660950186605}
  m_RootOrder: 0
  m_LocalEulerAnglesHint: {x: 0, y: 0, z: 0}
--- !u!1 &5210155030028781894
GameObject:
  m_ObjectHideFlags: 0
  m_CorrespondingSourceObject: {fileID: 0}
  m_PrefabInstance: {fileID: 0}
  m_PrefabAsset: {fileID: 0}
  serializedVersion: 6
  m_Component:
  - component: {fileID: 145259490459684320}
  m_Layer: 0
  m_Name: thumb.03.R
  m_TagString: Untagged
  m_Icon: {fileID: 0}
  m_NavMeshLayer: 0
  m_StaticEditorFlags: 0
  m_IsActive: 1
--- !u!4 &145259490459684320
Transform:
  m_ObjectHideFlags: 0
  m_CorrespondingSourceObject: {fileID: 0}
  m_PrefabInstance: {fileID: 0}
  m_PrefabAsset: {fileID: 0}
  m_GameObject: {fileID: 5210155030028781894}
  m_LocalRotation: {x: 0.017640335, y: 0.0037295588, z: -0.040652744, w: 0.9990107}
  m_LocalPosition: {x: 0.00000015553087, y: 0.025493583, z: 0.000000048428774}
  m_LocalScale: {x: 0.9999998, y: 0.99999994, z: 1}
  m_Children: []
  m_Father: {fileID: 1229591258663715850}
  m_RootOrder: 0
  m_LocalEulerAnglesHint: {x: 0, y: 0, z: 0}
--- !u!1 &5247692058691530440
GameObject:
  m_ObjectHideFlags: 0
  m_CorrespondingSourceObject: {fileID: 0}
  m_PrefabInstance: {fileID: 0}
  m_PrefabAsset: {fileID: 0}
  serializedVersion: 6
  m_Component:
  - component: {fileID: 4410796893586351819}
  - component: {fileID: 8080385651824666939}
  m_Layer: 0
  m_Name: Hat.015
  m_TagString: Untagged
  m_Icon: {fileID: 0}
  m_NavMeshLayer: 0
  m_StaticEditorFlags: 0
  m_IsActive: 1
--- !u!4 &4410796893586351819
Transform:
  m_ObjectHideFlags: 0
  m_CorrespondingSourceObject: {fileID: 0}
  m_PrefabInstance: {fileID: 0}
  m_PrefabAsset: {fileID: 0}
  m_GameObject: {fileID: 5247692058691530440}
  m_LocalRotation: {x: -0.7206861, y: 0, z: -0, w: 0.69326156}
  m_LocalPosition: {x: -0, y: 1.813318, z: 0.02949879}
  m_LocalScale: {x: 0.14521363, y: 0.14521365, z: 0.14521365}
  m_Children: []
  m_Father: {fileID: 7749343134778628953}
  m_RootOrder: 0
  m_LocalEulerAnglesHint: {x: 0, y: 0, z: 0}
--- !u!137 &8080385651824666939
SkinnedMeshRenderer:
  m_ObjectHideFlags: 0
  m_CorrespondingSourceObject: {fileID: 0}
  m_PrefabInstance: {fileID: 0}
  m_PrefabAsset: {fileID: 0}
  m_GameObject: {fileID: 5247692058691530440}
  m_Enabled: 1
  m_CastShadows: 1
  m_ReceiveShadows: 1
  m_DynamicOccludee: 1
  m_MotionVectors: 1
  m_LightProbeUsage: 1
  m_ReflectionProbeUsage: 1
  m_RayTracingMode: 0
  m_RayTraceProcedural: 0
  m_RenderingLayerMask: 1
  m_RendererPriority: 0
  m_Materials:
  - {fileID: 2100000, guid: 91db53b41c7644c1d820a0ad3485e395, type: 2}
  m_StaticBatchInfo:
    firstSubMesh: 0
    subMeshCount: 0
  m_StaticBatchRoot: {fileID: 0}
  m_ProbeAnchor: {fileID: 0}
  m_LightProbeVolumeOverride: {fileID: 0}
  m_ScaleInLightmap: 1
  m_ReceiveGI: 1
  m_PreserveUVs: 0
  m_IgnoreNormalsForChartDetection: 0
  m_ImportantGI: 0
  m_StitchLightmapSeams: 1
  m_SelectedEditorRenderState: 3
  m_MinimumChartSize: 4
  m_AutoUVMaxDistance: 0.5
  m_AutoUVMaxAngle: 89
  m_LightmapParameters: {fileID: 0}
  m_SortingLayerID: 0
  m_SortingLayer: 0
  m_SortingOrder: 0
  serializedVersion: 2
  m_Quality: 0
  m_UpdateWhenOffscreen: 0
  m_SkinnedMotionVectors: 1
  m_Mesh: {fileID: 2835203446114324856, guid: 83dc921c59cee4082b7dfb32719ccec7, type: 3}
  m_Bones:
  - {fileID: 5828698209538038066}
  - {fileID: 5417536005890161226}
  - {fileID: 3280743783688964390}
  - {fileID: 8699463273701037552}
  - {fileID: 133517025814392136}
  - {fileID: 210702961065160822}
  - {fileID: 5602066034356823577}
  - {fileID: 5392137450963894000}
  - {fileID: 3208264330009159849}
  - {fileID: 2077156754814590174}
  - {fileID: 9040120552218890917}
  - {fileID: 3702563660950186605}
  - {fileID: 1320879986464192956}
  - {fileID: 5650519635585971136}
  - {fileID: 5426585496995807}
  - {fileID: 2243799993906558807}
  - {fileID: 3653203751797412214}
  - {fileID: 8620414668772967044}
  - {fileID: 3916790606830204072}
  - {fileID: 328621767627409237}
  - {fileID: 4333234300733660731}
  - {fileID: 1078955762103422717}
  - {fileID: 8771808958525792561}
  - {fileID: 157742441544746274}
  - {fileID: 2239533917118202851}
  - {fileID: 7453870547243344677}
  - {fileID: 8537787390657340478}
  - {fileID: 6113597760971919278}
  - {fileID: 1000592449780125502}
  - {fileID: 4349735510140366902}
  - {fileID: 3144211718034880611}
  - {fileID: 1229591258663715850}
  - {fileID: 145259490459684320}
  - {fileID: 6111906966377020176}
  - {fileID: 5595280706031288139}
  - {fileID: 4510544373113724293}
  - {fileID: 6317937332051744339}
  - {fileID: 987554312916593278}
  - {fileID: 1743169755286108522}
  - {fileID: 2821418345841097009}
  - {fileID: 8110503261728180327}
  - {fileID: 3725958880842320059}
  - {fileID: 6769964815219289841}
  - {fileID: 4731895151806923953}
  - {fileID: 5272611438171085523}
  - {fileID: 5093707629978848723}
  - {fileID: 8527897779660106623}
  - {fileID: 4497044178823981840}
  - {fileID: 6446984285284226017}
  m_BlendShapeWeights: []
  m_RootBone: {fileID: 5828698209538038066}
  m_AABB:
    m_Center: {x: -0.000000029802322, y: 0.9085636, z: -0.16817927}
    m_Extent: {x: 0.15547366, y: 0.12999281, z: 0.18073747}
  m_DirtyAABB: 0
--- !u!1 &5296448014489855091
GameObject:
  m_ObjectHideFlags: 0
  m_CorrespondingSourceObject: {fileID: 0}
  m_PrefabInstance: {fileID: 0}
  m_PrefabAsset: {fileID: 0}
  serializedVersion: 6
  m_Component:
  - component: {fileID: 2821418345841097009}
  m_Layer: 0
  m_Name: thigh.L
  m_TagString: Untagged
  m_Icon: {fileID: 0}
  m_NavMeshLayer: 0
  m_StaticEditorFlags: 0
  m_IsActive: 1
--- !u!4 &2821418345841097009
Transform:
  m_ObjectHideFlags: 0
  m_CorrespondingSourceObject: {fileID: 0}
  m_PrefabInstance: {fileID: 0}
  m_PrefabAsset: {fileID: 0}
  m_GameObject: {fileID: 5296448014489855091}
  m_LocalRotation: {x: 0.986991, y: 0.00000004449394, z: 0.000000004684635, w: 0.16077587}
  m_LocalPosition: {x: -0.09169222, y: -0.00018806127, z: 0.04161591}
  m_LocalScale: {x: 1, y: 1, z: 0.99999744}
  m_Children:
  - {fileID: 8110503261728180327}
  m_Father: {fileID: 5828698209538038066}
  m_RootOrder: 3
  m_LocalEulerAnglesHint: {x: 0, y: 0, z: 0}
--- !u!1 &5311659530755681809
GameObject:
  m_ObjectHideFlags: 0
  m_CorrespondingSourceObject: {fileID: 0}
  m_PrefabInstance: {fileID: 0}
  m_PrefabAsset: {fileID: 0}
  serializedVersion: 6
  m_Component:
  - component: {fileID: 3916790606830204072}
  m_Layer: 0
  m_Name: palm.04.L
  m_TagString: Untagged
  m_Icon: {fileID: 0}
  m_NavMeshLayer: 0
  m_StaticEditorFlags: 0
  m_IsActive: 1
--- !u!4 &3916790606830204072
Transform:
  m_ObjectHideFlags: 0
  m_CorrespondingSourceObject: {fileID: 0}
  m_PrefabInstance: {fileID: 0}
  m_PrefabAsset: {fileID: 0}
  m_GameObject: {fileID: 5311659530755681809}
  m_LocalRotation: {x: -0.068258956, y: -0.7001542, z: 0.065634385, w: 0.7076842}
  m_LocalPosition: {x: -0.0011333136, y: 0.029561006, z: -0.020183}
  m_LocalScale: {x: 0.99999994, y: 1.0000001, z: 0.99999994}
  m_Children:
  - {fileID: 328621767627409237}
  m_Father: {fileID: 9040120552218890917}
  m_RootOrder: 1
  m_LocalEulerAnglesHint: {x: 0, y: 0, z: 0}
--- !u!1 &5535091877490929860
GameObject:
  m_ObjectHideFlags: 0
  m_CorrespondingSourceObject: {fileID: 0}
  m_PrefabInstance: {fileID: 0}
  m_PrefabAsset: {fileID: 0}
  serializedVersion: 6
  m_Component:
  - component: {fileID: 133517025814392136}
  m_Layer: 0
  m_Name: spine.004
  m_TagString: Untagged
  m_Icon: {fileID: 0}
  m_NavMeshLayer: 0
  m_StaticEditorFlags: 0
  m_IsActive: 1
--- !u!4 &133517025814392136
Transform:
  m_ObjectHideFlags: 0
  m_CorrespondingSourceObject: {fileID: 0}
  m_PrefabInstance: {fileID: 0}
  m_PrefabAsset: {fileID: 0}
  m_GameObject: {fileID: 5535091877490929860}
  m_LocalRotation: {x: 0.27925, y: -0.00000011446695, z: -0.000000033289208, w: 0.9602185}
  m_LocalPosition: {x: -7.940934e-23, y: 0.1801831, z: -0.0000000037252903}
  m_LocalScale: {x: 1, y: 0.99999994, z: 0.99999994}
  m_Children:
  - {fileID: 210702961065160822}
  m_Father: {fileID: 8699463273701037552}
  m_RootOrder: 2
  m_LocalEulerAnglesHint: {x: 0, y: 0, z: 0}
--- !u!1 &5568181041449834728
GameObject:
  m_ObjectHideFlags: 0
  m_CorrespondingSourceObject: {fileID: 0}
  m_PrefabInstance: {fileID: 0}
  m_PrefabAsset: {fileID: 0}
  serializedVersion: 6
  m_Component:
  - component: {fileID: 328621767627409237}
  m_Layer: 0
  m_Name: f_pinky.01.L
  m_TagString: Untagged
  m_Icon: {fileID: 0}
  m_NavMeshLayer: 0
  m_StaticEditorFlags: 0
  m_IsActive: 1
--- !u!4 &328621767627409237
Transform:
  m_ObjectHideFlags: 0
  m_CorrespondingSourceObject: {fileID: 0}
  m_PrefabInstance: {fileID: 0}
  m_PrefabAsset: {fileID: 0}
  m_GameObject: {fileID: 5568181041449834728}
  m_LocalRotation: {x: 0.23099588, y: 0.0792, z: -0.043772127, w: 0.9687375}
  m_LocalPosition: {x: 0.000018356368, y: 0.061445452, z: 0.0019023919}
  m_LocalScale: {x: 0.99999994, y: 0.99999994, z: 0.99999994}
  m_Children:
  - {fileID: 4333234300733660731}
  m_Father: {fileID: 3916790606830204072}
  m_RootOrder: 0
  m_LocalEulerAnglesHint: {x: 0, y: 0, z: 0}
--- !u!1 &5758674179857802849
GameObject:
  m_ObjectHideFlags: 0
  m_CorrespondingSourceObject: {fileID: 0}
  m_PrefabInstance: {fileID: 0}
  m_PrefabAsset: {fileID: 0}
  serializedVersion: 6
  m_Component:
  - component: {fileID: 3702563660950186605}
  m_Layer: 0
  m_Name: palm.01.L
  m_TagString: Untagged
  m_Icon: {fileID: 0}
  m_NavMeshLayer: 0
  m_StaticEditorFlags: 0
  m_IsActive: 1
--- !u!4 &3702563660950186605
Transform:
  m_ObjectHideFlags: 0
  m_CorrespondingSourceObject: {fileID: 0}
  m_PrefabInstance: {fileID: 0}
  m_PrefabAsset: {fileID: 0}
  m_GameObject: {fileID: 5758674179857802849}
  m_LocalRotation: {x: 0.042681012, y: -0.7108888, z: -0.04576727, w: 0.7005147}
  m_LocalPosition: {x: -0.0029402017, y: 0.03096057, z: 0.014794316}
  m_LocalScale: {x: 0.9999998, y: 0.9999998, z: 0.99999994}
  m_Children:
  - {fileID: 1320879986464192956}
  - {fileID: 2243799993906558807}
  m_Father: {fileID: 9040120552218890917}
  m_RootOrder: 0
  m_LocalEulerAnglesHint: {x: 0, y: 0, z: 0}
--- !u!1 &5985236562548920969
GameObject:
  m_ObjectHideFlags: 0
  m_CorrespondingSourceObject: {fileID: 0}
  m_PrefabInstance: {fileID: 0}
  m_PrefabAsset: {fileID: 0}
  serializedVersion: 6
  m_Component:
  - component: {fileID: 4731895151806923953}
  m_Layer: 0
  m_Name: heel.02.L
  m_TagString: Untagged
  m_Icon: {fileID: 0}
  m_NavMeshLayer: 0
  m_StaticEditorFlags: 0
  m_IsActive: 1
--- !u!4 &4731895151806923953
Transform:
  m_ObjectHideFlags: 0
  m_CorrespondingSourceObject: {fileID: 0}
  m_PrefabInstance: {fileID: 0}
  m_PrefabAsset: {fileID: 0}
  m_GameObject: {fileID: 5985236562548920969}
  m_LocalRotation: {x: -0.67970544, y: 0.6797055, z: -0.19493707, w: -0.19493708}
  m_LocalPosition: {x: 0.035554126, y: 0.01868482, z: 0.08232694}
  m_LocalScale: {x: 1, y: 1, z: 1}
  m_Children: []
  m_Father: {fileID: 3725958880842320059}
  m_RootOrder: 0
  m_LocalEulerAnglesHint: {x: 0, y: 0, z: 0}
--- !u!1 &6594438137285557191
GameObject:
  m_ObjectHideFlags: 0
  m_CorrespondingSourceObject: {fileID: 0}
  m_PrefabInstance: {fileID: 0}
  m_PrefabAsset: {fileID: 0}
  serializedVersion: 6
  m_Component:
  - component: {fileID: 3280743783688964390}
  m_Layer: 0
  m_Name: spine.002
  m_TagString: Untagged
  m_Icon: {fileID: 0}
  m_NavMeshLayer: 0
  m_StaticEditorFlags: 0
  m_IsActive: 1
--- !u!4 &3280743783688964390
Transform:
  m_ObjectHideFlags: 0
  m_CorrespondingSourceObject: {fileID: 0}
  m_PrefabInstance: {fileID: 0}
  m_PrefabAsset: {fileID: 0}
  m_GameObject: {fileID: 6594438137285557191}
  m_LocalRotation: {x: -0.07301018, y: 0.000000118891215, z: 0.000000008703495, w: 0.9973312}
  m_LocalPosition: {x: -1.4914317e-15, y: 0.13778208, z: 0.000000012747478}
  m_LocalScale: {x: 1, y: 1, z: 1}
  m_Children:
  - {fileID: 8699463273701037552}
  - {fileID: 8083669565482667913}
  m_Father: {fileID: 5417536005890161226}
  m_RootOrder: 0
  m_LocalEulerAnglesHint: {x: 0, y: 0, z: 0}
--- !u!1 &6971820890730775011
GameObject:
  m_ObjectHideFlags: 0
  m_CorrespondingSourceObject: {fileID: 0}
  m_PrefabInstance: {fileID: 0}
  m_PrefabAsset: {fileID: 0}
  serializedVersion: 6
  m_Component:
  - component: {fileID: 7749343134778628953}
  - component: {fileID: 4425664393982394659}
  - component: {fileID: 9000352406861889447}
  - component: {fileID: 7348431490141840857}
  - component: {fileID: 4475702500266023201}
  m_Layer: 0
  m_Name: enemy2
  m_TagString: Untagged
  m_Icon: {fileID: 0}
  m_NavMeshLayer: 0
  m_StaticEditorFlags: 0
  m_IsActive: 1
--- !u!4 &7749343134778628953
Transform:
  m_ObjectHideFlags: 0
  m_CorrespondingSourceObject: {fileID: 0}
  m_PrefabInstance: {fileID: 0}
  m_PrefabAsset: {fileID: 0}
  m_GameObject: {fileID: 6971820890730775011}
  m_LocalRotation: {x: 0, y: 0, z: 0, w: 1}
  m_LocalPosition: {x: 0, y: 0, z: 0}
  m_LocalScale: {x: 3, y: 3, z: 3}
  m_Children:
  - {fileID: 4410796893586351819}
  - {fileID: 4525939442561872691}
  - {fileID: 260383601538248827}
  - {fileID: 3299854918683203831}
  - {fileID: 180477166328524344}
  - {fileID: 7528568509756442900}
  m_Father: {fileID: 0}
  m_RootOrder: 0
  m_LocalEulerAnglesHint: {x: 0, y: 0, z: 0}
--- !u!95 &4425664393982394659
Animator:
  serializedVersion: 3
  m_ObjectHideFlags: 0
  m_CorrespondingSourceObject: {fileID: 0}
  m_PrefabInstance: {fileID: 0}
  m_PrefabAsset: {fileID: 0}
  m_GameObject: {fileID: 6971820890730775011}
  m_Enabled: 1
  m_Avatar: {fileID: 0}
  m_Controller: {fileID: 9100000, guid: c841904742126f44bab40ad44fd85b3d, type: 2}
  m_CullingMode: 1
  m_UpdateMode: 0
  m_ApplyRootMotion: 1
  m_LinearVelocityBlending: 0
  m_WarningMessage: 
  m_HasTransformHierarchy: 1
  m_AllowConstantClipSamplingOptimization: 1
  m_KeepAnimatorControllerStateOnDisable: 0
--- !u!114 &9000352406861889447
MonoBehaviour:
  m_ObjectHideFlags: 0
  m_CorrespondingSourceObject: {fileID: 0}
  m_PrefabInstance: {fileID: 0}
  m_PrefabAsset: {fileID: 0}
  m_GameObject: {fileID: 6971820890730775011}
  m_Enabled: 1
  m_EditorHideFlags: 0
  m_Script: {fileID: 11500000, guid: c588ee888790b924ca0abe401889044f, type: 3}
  m_Name: 
  m_EditorClassIdentifier: 
  _navMeshAgent: {fileID: 7348431490141840857}
  _speed: 4
  _isStopingBeforeNextPoint: 1
  _nextPointTimeDelation: 2
  _patrolSpots:
  - {fileID: 0}
  _enemyAnimator: {fileID: 4425664393982394659}
  _bulletSpawnPoint: {fileID: 1803329587337389703}
--- !u!195 &7348431490141840857
NavMeshAgent:
  m_ObjectHideFlags: 0
  m_CorrespondingSourceObject: {fileID: 0}
  m_PrefabInstance: {fileID: 0}
  m_PrefabAsset: {fileID: 0}
  m_GameObject: {fileID: 6971820890730775011}
  m_Enabled: 1
  m_AgentTypeID: 0
  m_Radius: 0.35
  m_Speed: 3.5
  m_Acceleration: 8
  avoidancePriority: 50
  m_AngularSpeed: 120
  m_StoppingDistance: 0
  m_AutoTraverseOffMeshLink: 1
  m_AutoBraking: 1
  m_AutoRepath: 1
  m_Height: 1.99
  m_BaseOffset: -0.03
  m_WalkableMask: 4294967295
  m_ObstacleAvoidanceType: 4
--- !u!136 &4475702500266023201
CapsuleCollider:
  m_ObjectHideFlags: 0
  m_CorrespondingSourceObject: {fileID: 0}
  m_PrefabInstance: {fileID: 0}
  m_PrefabAsset: {fileID: 0}
  m_GameObject: {fileID: 6971820890730775011}
  m_Material: {fileID: 0}
  m_IsTrigger: 1
  m_Enabled: 1
  m_Radius: 1.12
  m_Height: 6.22
  m_Direction: 2
  m_Center: {x: 0, y: 1.09, z: 2.75}
--- !u!1 &7011393339895077028
GameObject:
  m_ObjectHideFlags: 0
  m_CorrespondingSourceObject: {fileID: 0}
  m_PrefabInstance: {fileID: 0}
  m_PrefabAsset: {fileID: 0}
  serializedVersion: 6
  m_Component:
  - component: {fileID: 8537787390657340478}
  m_Layer: 0
  m_Name: palm.01.R
  m_TagString: Untagged
  m_Icon: {fileID: 0}
  m_NavMeshLayer: 0
  m_StaticEditorFlags: 0
  m_IsActive: 1
--- !u!4 &8537787390657340478
Transform:
  m_ObjectHideFlags: 0
  m_CorrespondingSourceObject: {fileID: 0}
  m_PrefabInstance: {fileID: 0}
  m_PrefabAsset: {fileID: 0}
  m_GameObject: {fileID: 7011393339895077028}
  m_LocalRotation: {x: 0.042681012, y: 0.7108888, z: 0.04576727, w: 0.7005147}
  m_LocalPosition: {x: 0.0029402017, y: 0.03096057, z: 0.014794316}
  m_LocalScale: {x: 0.9999998, y: 0.9999998, z: 0.99999994}
  m_Children:
  - {fileID: 6113597760971919278}
  - {fileID: 3144211718034880611}
  m_Father: {fileID: 7453870547243344677}
  m_RootOrder: 0
  m_LocalEulerAnglesHint: {x: 0, y: 0, z: 0}
--- !u!1 &7127589922062250492
GameObject:
  m_ObjectHideFlags: 0
  m_CorrespondingSourceObject: {fileID: 0}
  m_PrefabInstance: {fileID: 0}
  m_PrefabAsset: {fileID: 0}
  serializedVersion: 6
  m_Component:
  - component: {fileID: 5828698209538038066}
  m_Layer: 0
  m_Name: spine
  m_TagString: Untagged
  m_Icon: {fileID: 0}
  m_NavMeshLayer: 0
  m_StaticEditorFlags: 0
  m_IsActive: 1
--- !u!4 &5828698209538038066
Transform:
  m_ObjectHideFlags: 0
  m_CorrespondingSourceObject: {fileID: 0}
  m_PrefabInstance: {fileID: 0}
  m_PrefabAsset: {fileID: 0}
  m_GameObject: {fileID: 7127589922062250492}
  m_LocalRotation: {x: 0.7961859, y: -0.00000007212786, z: -0.00000009491275, w: 0.60505205}
  m_LocalPosition: {x: -0, y: 0.05164705, z: 0.9448977}
  m_LocalScale: {x: 1, y: 1, z: 1.0000001}
  m_Children:
  - {fileID: 987554312916593278}
  - {fileID: 1743169755286108522}
  - {fileID: 5417536005890161226}
  - {fileID: 2821418345841097009}
  - {fileID: 5272611438171085523}
  m_Father: {fileID: 4525939442561872691}
  m_RootOrder: 0
  m_LocalEulerAnglesHint: {x: 0, y: 0, z: 0}
--- !u!1 &7162974818125662778
GameObject:
  m_ObjectHideFlags: 0
  m_CorrespondingSourceObject: {fileID: 0}
  m_PrefabInstance: {fileID: 0}
  m_PrefabAsset: {fileID: 0}
  serializedVersion: 6
  m_Component:
  - component: {fileID: 8110503261728180327}
  m_Layer: 0
  m_Name: shin.L
  m_TagString: Untagged
  m_Icon: {fileID: 0}
  m_NavMeshLayer: 0
  m_StaticEditorFlags: 0
  m_IsActive: 1
--- !u!4 &8110503261728180327
Transform:
  m_ObjectHideFlags: 0
  m_CorrespondingSourceObject: {fileID: 0}
  m_PrefabInstance: {fileID: 0}
  m_PrefabAsset: {fileID: 0}
  m_GameObject: {fileID: 7162974818125662778}
  m_LocalRotation: {x: 0.05647135, y: -0.00000012401064, z: 0.0000000123888855, w: 0.9984042}
  m_LocalPosition: {x: -3.761773e-10, y: 0.43152693, z: -0.0000000014704788}
  m_LocalScale: {x: 1, y: 1, z: 0.99999994}
  m_Children:
  - {fileID: 3725958880842320059}
  m_Father: {fileID: 2821418345841097009}
  m_RootOrder: 0
  m_LocalEulerAnglesHint: {x: 0, y: 0, z: 0}
--- !u!1 &7181949684378166864
GameObject:
  m_ObjectHideFlags: 0
  m_CorrespondingSourceObject: {fileID: 0}
  m_PrefabInstance: {fileID: 0}
  m_PrefabAsset: {fileID: 0}
  serializedVersion: 6
  m_Component:
  - component: {fileID: 6317937332051744339}
  m_Layer: 0
  m_Name: f_pinky.03.R
  m_TagString: Untagged
  m_Icon: {fileID: 0}
  m_NavMeshLayer: 0
  m_StaticEditorFlags: 0
  m_IsActive: 1
--- !u!4 &6317937332051744339
Transform:
  m_ObjectHideFlags: 0
  m_CorrespondingSourceObject: {fileID: 0}
  m_PrefabInstance: {fileID: 0}
  m_PrefabAsset: {fileID: 0}
  m_GameObject: {fileID: 7181949684378166864}
  m_LocalRotation: {x: 0.086635634, y: -0.02327926, z: -0.038325995, w: 0.9952304}
  m_LocalPosition: {x: 0.000000018626451, y: 0.01905443, z: -0.000000035390258}
  m_LocalScale: {x: 0.99999994, y: 1, z: 0.99999994}
  m_Children: []
  m_Father: {fileID: 4510544373113724293}
  m_RootOrder: 0
  m_LocalEulerAnglesHint: {x: 0, y: 0, z: 0}
--- !u!1 &7356377376163121275
GameObject:
  m_ObjectHideFlags: 0
  m_CorrespondingSourceObject: {fileID: 0}
  m_PrefabInstance: {fileID: 0}
  m_PrefabAsset: {fileID: 0}
  serializedVersion: 6
  m_Component:
  - component: {fileID: 2243799993906558807}
  m_Layer: 0
  m_Name: thumb.01.L
  m_TagString: Untagged
  m_Icon: {fileID: 0}
  m_NavMeshLayer: 0
  m_StaticEditorFlags: 0
  m_IsActive: 1
--- !u!4 &2243799993906558807
Transform:
  m_ObjectHideFlags: 0
  m_CorrespondingSourceObject: {fileID: 0}
  m_PrefabInstance: {fileID: 0}
  m_PrefabAsset: {fileID: 0}
  m_GameObject: {fileID: 7356377376163121275}
  m_LocalRotation: {x: 0.030364947, y: -0.6926001, z: -0.3106001, w: 0.65031594}
  m_LocalPosition: {x: 0.008879852, y: 0.008649718, z: 0.02720593}
  m_LocalScale: {x: 0.99999994, y: 0.99999994, z: 1}
  m_Children:
  - {fileID: 3653203751797412214}
  m_Father: {fileID: 3702563660950186605}
  m_RootOrder: 1
  m_LocalEulerAnglesHint: {x: 0, y: 0, z: 0}
--- !u!1 &7505563091490740825
GameObject:
  m_ObjectHideFlags: 0
  m_CorrespondingSourceObject: {fileID: 0}
  m_PrefabInstance: {fileID: 0}
  m_PrefabAsset: {fileID: 0}
  serializedVersion: 6
  m_Component:
  - component: {fileID: 8527897779660106623}
  m_Layer: 0
  m_Name: foot.R
  m_TagString: Untagged
  m_Icon: {fileID: 0}
  m_NavMeshLayer: 0
  m_StaticEditorFlags: 0
  m_IsActive: 1
--- !u!4 &8527897779660106623
Transform:
  m_ObjectHideFlags: 0
  m_CorrespondingSourceObject: {fileID: 0}
  m_PrefabInstance: {fileID: 0}
  m_PrefabAsset: {fileID: 0}
  m_GameObject: {fileID: 7505563091490740825}
  m_LocalRotation: {x: -0.51129454, y: 1.4047707e-10, z: 2.3645993e-10, w: 0.8594056}
  m_LocalPosition: {x: 1.2520637e-11, y: 0.42369974, z: -5.230526e-10}
  m_LocalScale: {x: 1, y: 1, z: 1}
  m_Children:
  - {fileID: 6446984285284226017}
  - {fileID: 4497044178823981840}
  m_Father: {fileID: 5093707629978848723}
  m_RootOrder: 0
  m_LocalEulerAnglesHint: {x: 0, y: 0, z: 0}
--- !u!1 &7880598633294850475
GameObject:
  m_ObjectHideFlags: 0
  m_CorrespondingSourceObject: {fileID: 0}
  m_PrefabInstance: {fileID: 0}
  m_PrefabAsset: {fileID: 0}
  serializedVersion: 6
  m_Component:
  - component: {fileID: 8771808958525792561}
  m_Layer: 0
  m_Name: shoulder.R
  m_TagString: Untagged
  m_Icon: {fileID: 0}
  m_NavMeshLayer: 0
  m_StaticEditorFlags: 0
  m_IsActive: 1
--- !u!4 &8771808958525792561
Transform:
  m_ObjectHideFlags: 0
  m_CorrespondingSourceObject: {fileID: 0}
  m_PrefabInstance: {fileID: 0}
  m_PrefabAsset: {fileID: 0}
  m_GameObject: {fileID: 7880598633294850475}
  m_LocalRotation: {x: 0.6079615, y: 0.3892763, z: 0.48065382, w: -0.4978139}
  m_LocalPosition: {x: 0.01712212, y: 0.12838885, z: 0.07321429}
  m_LocalScale: {x: 0.9999998, y: 0.9999999, z: 0.99999994}
  m_Children:
  - {fileID: 157742441544746274}
  m_Father: {fileID: 8699463273701037552}
  m_RootOrder: 1
  m_LocalEulerAnglesHint: {x: 0, y: 0, z: 0}
--- !u!1 &7995946355411402710
GameObject:
  m_ObjectHideFlags: 0
  m_CorrespondingSourceObject: {fileID: 0}
  m_PrefabInstance: {fileID: 0}
  m_PrefabAsset: {fileID: 0}
  serializedVersion: 6
  m_Component:
  - component: {fileID: 4510544373113724293}
  m_Layer: 0
  m_Name: f_pinky.02.R
  m_TagString: Untagged
  m_Icon: {fileID: 0}
  m_NavMeshLayer: 0
  m_StaticEditorFlags: 0
  m_IsActive: 1
--- !u!4 &4510544373113724293
Transform:
  m_ObjectHideFlags: 0
  m_CorrespondingSourceObject: {fileID: 0}
  m_PrefabInstance: {fileID: 0}
  m_PrefabAsset: {fileID: 0}
  m_GameObject: {fileID: 7995946355411402710}
  m_LocalRotation: {x: 0.035713427, y: -0.012252149, z: 0.012312063, w: 0.99921113}
  m_LocalPosition: {x: 0.000000026077032, y: 0.025331724, z: -0.000000011641532}
  m_LocalScale: {x: 0.99999994, y: 0.99999994, z: 1}
  m_Children:
  - {fileID: 6317937332051744339}
  m_Father: {fileID: 5595280706031288139}
  m_RootOrder: 0
  m_LocalEulerAnglesHint: {x: 0, y: 0, z: 0}
--- !u!1 &8065729695382438500
GameObject:
  m_ObjectHideFlags: 0
  m_CorrespondingSourceObject: {fileID: 0}
  m_PrefabInstance: {fileID: 0}
  m_PrefabAsset: {fileID: 0}
  serializedVersion: 6
  m_Component:
  - component: {fileID: 5392137450963894000}
  m_Layer: 0
  m_Name: shoulder.L
  m_TagString: Untagged
  m_Icon: {fileID: 0}
  m_NavMeshLayer: 0
  m_StaticEditorFlags: 0
  m_IsActive: 1
--- !u!4 &5392137450963894000
Transform:
  m_ObjectHideFlags: 0
  m_CorrespondingSourceObject: {fileID: 0}
  m_PrefabInstance: {fileID: 0}
  m_PrefabAsset: {fileID: 0}
  m_GameObject: {fileID: 8065729695382438500}
  m_LocalRotation: {x: 0.6079615, y: -0.3892763, z: -0.48065382, w: -0.4978139}
  m_LocalPosition: {x: -0.01712212, y: 0.12838885, z: 0.073214285}
  m_LocalScale: {x: 0.9999998, y: 0.9999999, z: 0.99999994}
  m_Children:
  - {fileID: 3208264330009159849}
  m_Father: {fileID: 8699463273701037552}
  m_RootOrder: 0
  m_LocalEulerAnglesHint: {x: 0, y: 0, z: 0}
--- !u!1 &8167542041907519166
GameObject:
  m_ObjectHideFlags: 0
  m_CorrespondingSourceObject: {fileID: 0}
  m_PrefabInstance: {fileID: 0}
  m_PrefabAsset: {fileID: 0}
  serializedVersion: 6
  m_Component:
  - component: {fileID: 3725958880842320059}
  m_Layer: 0
  m_Name: foot.L
  m_TagString: Untagged
  m_Icon: {fileID: 0}
  m_NavMeshLayer: 0
  m_StaticEditorFlags: 0
  m_IsActive: 1
--- !u!4 &3725958880842320059
Transform:
  m_ObjectHideFlags: 0
  m_CorrespondingSourceObject: {fileID: 0}
  m_PrefabInstance: {fileID: 0}
  m_PrefabAsset: {fileID: 0}
  m_GameObject: {fileID: 8167542041907519166}
  m_LocalRotation: {x: -0.51129454, y: -1.4048883e-10, z: -2.3646796e-10, w: 0.8594056}
  m_LocalPosition: {x: -1.2521331e-11, y: 0.42369974, z: 0.0000000013393467}
  m_LocalScale: {x: 1, y: 1, z: 1}
  m_Children:
  - {fileID: 4731895151806923953}
  - {fileID: 6769964815219289841}
  m_Father: {fileID: 8110503261728180327}
  m_RootOrder: 0
  m_LocalEulerAnglesHint: {x: 0, y: 0, z: 0}
--- !u!1 &8273997696098023085
GameObject:
  m_ObjectHideFlags: 0
  m_CorrespondingSourceObject: {fileID: 0}
  m_PrefabInstance: {fileID: 0}
  m_PrefabAsset: {fileID: 0}
  serializedVersion: 6
  m_Component:
  - component: {fileID: 3653203751797412214}
  m_Layer: 0
  m_Name: thumb.02.L
  m_TagString: Untagged
  m_Icon: {fileID: 0}
  m_NavMeshLayer: 0
  m_StaticEditorFlags: 0
  m_IsActive: 1
--- !u!4 &3653203751797412214
Transform:
  m_ObjectHideFlags: 0
  m_CorrespondingSourceObject: {fileID: 0}
  m_PrefabInstance: {fileID: 0}
  m_PrefabAsset: {fileID: 0}
  m_GameObject: {fileID: 8273997696098023085}
  m_LocalRotation: {x: 0.16110224, y: 0.010514884, z: 0.06799503, w: 0.9845365}
  m_LocalPosition: {x: -0.000000010244548, y: 0.03181856, z: -0.000000013038516}
  m_LocalScale: {x: 0.99999994, y: 1, z: 1}
  m_Children:
  - {fileID: 8620414668772967044}
  m_Father: {fileID: 2243799993906558807}
  m_RootOrder: 0
  m_LocalEulerAnglesHint: {x: 0, y: 0, z: 0}
--- !u!1 &8478348511293603762
GameObject:
  m_ObjectHideFlags: 0
  m_CorrespondingSourceObject: {fileID: 0}
  m_PrefabInstance: {fileID: 0}
  m_PrefabAsset: {fileID: 0}
  serializedVersion: 6
  m_Component:
  - component: {fileID: 3208264330009159849}
  m_Layer: 0
  m_Name: upper_arm.L
  m_TagString: Untagged
  m_Icon: {fileID: 0}
  m_NavMeshLayer: 0
  m_StaticEditorFlags: 0
  m_IsActive: 1
--- !u!4 &3208264330009159849
Transform:
  m_ObjectHideFlags: 0
  m_CorrespondingSourceObject: {fileID: 0}
  m_PrefabInstance: {fileID: 0}
  m_PrefabAsset: {fileID: 0}
  m_GameObject: {fileID: 8478348511293603762}
  m_LocalRotation: {x: -0.072080225, y: -0.7375933, z: 0.15141052, w: 0.6540913}
  m_LocalPosition: {x: -0.00018166006, y: 0.23769847, z: 0.001988292}
  m_LocalScale: {x: 1, y: 1, z: 0.99999994}
  m_Children:
  - {fileID: 2077156754814590174}
  m_Father: {fileID: 5392137450963894000}
  m_RootOrder: 0
  m_LocalEulerAnglesHint: {x: 0, y: 0, z: 0}
--- !u!1 &8775005454486492660
GameObject:
  m_ObjectHideFlags: 0
  m_CorrespondingSourceObject: {fileID: 0}
  m_PrefabInstance: {fileID: 0}
  m_PrefabAsset: {fileID: 0}
  serializedVersion: 6
  m_Component:
  - component: {fileID: 1229591258663715850}
  m_Layer: 0
  m_Name: thumb.02.R
  m_TagString: Untagged
  m_Icon: {fileID: 0}
  m_NavMeshLayer: 0
  m_StaticEditorFlags: 0
  m_IsActive: 1
--- !u!4 &1229591258663715850
Transform:
  m_ObjectHideFlags: 0
  m_CorrespondingSourceObject: {fileID: 0}
  m_PrefabInstance: {fileID: 0}
  m_PrefabAsset: {fileID: 0}
  m_GameObject: {fileID: 8775005454486492660}
  m_LocalRotation: {x: 0.16110224, y: -0.010514884, z: -0.06799503, w: 0.9845365}
  m_LocalPosition: {x: 0.000000010244548, y: 0.03181856, z: -0.000000013038516}
  m_LocalScale: {x: 0.99999994, y: 1, z: 1}
  m_Children:
  - {fileID: 145259490459684320}
  m_Father: {fileID: 3144211718034880611}
  m_RootOrder: 0
  m_LocalEulerAnglesHint: {x: 0, y: 0, z: 0}
--- !u!1 &8801526230380763930
GameObject:
  m_ObjectHideFlags: 0
  m_CorrespondingSourceObject: {fileID: 0}
  m_PrefabInstance: {fileID: 0}
  m_PrefabAsset: {fileID: 0}
  serializedVersion: 6
  m_Component:
  - component: {fileID: 6446984285284226017}
  m_Layer: 0
  m_Name: heel.02.R
  m_TagString: Untagged
  m_Icon: {fileID: 0}
  m_NavMeshLayer: 0
  m_StaticEditorFlags: 0
  m_IsActive: 1
--- !u!4 &6446984285284226017
Transform:
  m_ObjectHideFlags: 0
  m_CorrespondingSourceObject: {fileID: 0}
  m_PrefabInstance: {fileID: 0}
  m_PrefabAsset: {fileID: 0}
  m_GameObject: {fileID: 8801526230380763930}
  m_LocalRotation: {x: 0.67970544, y: 0.6797055, z: -0.19493707, w: 0.19493708}
  m_LocalPosition: {x: -0.035554126, y: 0.018684816, z: 0.08232694}
  m_LocalScale: {x: 1, y: 1, z: 1}
  m_Children: []
  m_Father: {fileID: 8527897779660106623}
  m_RootOrder: 0
  m_LocalEulerAnglesHint: {x: 0, y: 0, z: 0}
--- !u!1 &9066048408211150368
GameObject:
  m_ObjectHideFlags: 0
  m_CorrespondingSourceObject: {fileID: 0}
  m_PrefabInstance: {fileID: 0}
  m_PrefabAsset: {fileID: 0}
  serializedVersion: 6
  m_Component:
  - component: {fileID: 6111906966377020176}
  m_Layer: 0
  m_Name: palm.04.R
  m_TagString: Untagged
  m_Icon: {fileID: 0}
  m_NavMeshLayer: 0
  m_StaticEditorFlags: 0
  m_IsActive: 1
--- !u!4 &6111906966377020176
Transform:
  m_ObjectHideFlags: 0
  m_CorrespondingSourceObject: {fileID: 0}
  m_PrefabInstance: {fileID: 0}
  m_PrefabAsset: {fileID: 0}
  m_GameObject: {fileID: 9066048408211150368}
  m_LocalRotation: {x: -0.068258956, y: 0.7001542, z: -0.065634385, w: 0.7076842}
  m_LocalPosition: {x: 0.0011333136, y: 0.029561006, z: -0.020183}
  m_LocalScale: {x: 0.99999994, y: 1.0000001, z: 0.99999994}
  m_Children:
  - {fileID: 5595280706031288139}
  m_Father: {fileID: 7453870547243344677}
  m_RootOrder: 1
  m_LocalEulerAnglesHint: {x: 0, y: 0, z: 0}
--- !u!1 &9079931120632818558
GameObject:
  m_ObjectHideFlags: 0
  m_CorrespondingSourceObject: {fileID: 0}
  m_PrefabInstance: {fileID: 0}
  m_PrefabAsset: {fileID: 0}
  serializedVersion: 6
  m_Component:
  - component: {fileID: 4349735510140366902}
  m_Layer: 0
  m_Name: f_index.03.R
  m_TagString: Untagged
  m_Icon: {fileID: 0}
  m_NavMeshLayer: 0
  m_StaticEditorFlags: 0
  m_IsActive: 1
--- !u!4 &4349735510140366902
Transform:
  m_ObjectHideFlags: 0
  m_CorrespondingSourceObject: {fileID: 0}
  m_PrefabInstance: {fileID: 0}
  m_PrefabAsset: {fileID: 0}
  m_GameObject: {fileID: 9079931120632818558}
  m_LocalRotation: {x: 0.11405652, y: -0.004970589, z: -0.030168794, w: 0.99300367}
  m_LocalPosition: {x: 0.0000000018626451, y: 0.022881731, z: -0.0000000011641532}
  m_LocalScale: {x: 1, y: 0.99999994, z: 1}
  m_Children: []
  m_Father: {fileID: 1000592449780125502}
  m_RootOrder: 0
  m_LocalEulerAnglesHint: {x: 0, y: 0, z: 0}
--- !u!1 &9107125106399340547
GameObject:
  m_ObjectHideFlags: 0
  m_CorrespondingSourceObject: {fileID: 0}
  m_PrefabInstance: {fileID: 0}
  m_PrefabAsset: {fileID: 0}
  serializedVersion: 6
  m_Component:
  - component: {fileID: 260383601538248827}
  - component: {fileID: 7587257811237244055}
  m_Layer: 0
  m_Name: Inflated man (bandit).001
  m_TagString: Untagged
  m_Icon: {fileID: 0}
  m_NavMeshLayer: 0
  m_StaticEditorFlags: 0
  m_IsActive: 1
--- !u!4 &260383601538248827
Transform:
  m_ObjectHideFlags: 0
  m_CorrespondingSourceObject: {fileID: 0}
  m_PrefabInstance: {fileID: 0}
  m_PrefabAsset: {fileID: 0}
  m_GameObject: {fileID: 9107125106399340547}
  m_LocalRotation: {x: -0.7071068, y: 0, z: -0, w: 0.7071067}
  m_LocalPosition: {x: -0, y: 0, z: 0.026399488}
  m_LocalScale: {x: 1, y: 1, z: 1}
  m_Children: []
  m_Father: {fileID: 7749343134778628953}
  m_RootOrder: 2
  m_LocalEulerAnglesHint: {x: 0, y: 0, z: 0}
--- !u!137 &7587257811237244055
SkinnedMeshRenderer:
  m_ObjectHideFlags: 0
  m_CorrespondingSourceObject: {fileID: 0}
  m_PrefabInstance: {fileID: 0}
  m_PrefabAsset: {fileID: 0}
  m_GameObject: {fileID: 9107125106399340547}
  m_Enabled: 1
  m_CastShadows: 1
  m_ReceiveShadows: 1
  m_DynamicOccludee: 1
  m_MotionVectors: 1
  m_LightProbeUsage: 1
  m_ReflectionProbeUsage: 1
  m_RayTracingMode: 0
  m_RayTraceProcedural: 0
  m_RenderingLayerMask: 1
  m_RendererPriority: 0
  m_Materials:
  - {fileID: 2100000, guid: 91db53b41c7644c1d820a0ad3485e395, type: 2}
  - {fileID: 2100000, guid: d408a05e1c86142309c50f9d14994a25, type: 2}
  m_StaticBatchInfo:
    firstSubMesh: 0
    subMeshCount: 0
  m_StaticBatchRoot: {fileID: 0}
  m_ProbeAnchor: {fileID: 0}
  m_LightProbeVolumeOverride: {fileID: 0}
  m_ScaleInLightmap: 1
  m_ReceiveGI: 1
  m_PreserveUVs: 0
  m_IgnoreNormalsForChartDetection: 0
  m_ImportantGI: 0
  m_StitchLightmapSeams: 1
  m_SelectedEditorRenderState: 3
  m_MinimumChartSize: 4
  m_AutoUVMaxDistance: 0.5
  m_AutoUVMaxAngle: 89
  m_LightmapParameters: {fileID: 0}
  m_SortingLayerID: 0
  m_SortingLayer: 0
  m_SortingOrder: 0
  serializedVersion: 2
  m_Quality: 0
  m_UpdateWhenOffscreen: 0
  m_SkinnedMotionVectors: 1
  m_Mesh: {fileID: 5476090868421153621, guid: 83dc921c59cee4082b7dfb32719ccec7, type: 3}
  m_Bones:
  - {fileID: 5828698209538038066}
  - {fileID: 5417536005890161226}
  - {fileID: 3280743783688964390}
  - {fileID: 8699463273701037552}
  - {fileID: 133517025814392136}
  - {fileID: 210702961065160822}
  - {fileID: 5602066034356823577}
  - {fileID: 5392137450963894000}
  - {fileID: 3208264330009159849}
  - {fileID: 2077156754814590174}
  - {fileID: 9040120552218890917}
  - {fileID: 3702563660950186605}
  - {fileID: 1320879986464192956}
  - {fileID: 5650519635585971136}
  - {fileID: 5426585496995807}
  - {fileID: 2243799993906558807}
  - {fileID: 3653203751797412214}
  - {fileID: 8620414668772967044}
  - {fileID: 3916790606830204072}
  - {fileID: 328621767627409237}
  - {fileID: 4333234300733660731}
  - {fileID: 1078955762103422717}
  - {fileID: 8771808958525792561}
  - {fileID: 157742441544746274}
  - {fileID: 2239533917118202851}
  - {fileID: 7453870547243344677}
  - {fileID: 8537787390657340478}
  - {fileID: 6113597760971919278}
  - {fileID: 1000592449780125502}
  - {fileID: 4349735510140366902}
  - {fileID: 3144211718034880611}
  - {fileID: 1229591258663715850}
  - {fileID: 145259490459684320}
  - {fileID: 6111906966377020176}
  - {fileID: 5595280706031288139}
  - {fileID: 4510544373113724293}
  - {fileID: 6317937332051744339}
  - {fileID: 987554312916593278}
  - {fileID: 1743169755286108522}
  - {fileID: 2821418345841097009}
  - {fileID: 8110503261728180327}
  - {fileID: 3725958880842320059}
  - {fileID: 6769964815219289841}
  - {fileID: 4731895151806923953}
  - {fileID: 5272611438171085523}
  - {fileID: 5093707629978848723}
  - {fileID: 8527897779660106623}
  - {fileID: 4497044178823981840}
  - {fileID: 6446984285284226017}
  m_BlendShapeWeights: []
  m_RootBone: {fileID: 5828698209538038066}
  m_AABB:
    m_Center: {x: 0.000000029802322, y: 0.013512552, z: 0.04033628}
    m_Extent: {x: 0.8215653, y: 0.9783482, z: 0.41923937}
  m_DirtyAABB: 0
--- !u!1 &9163688365220630347
GameObject:
  m_ObjectHideFlags: 0
  m_CorrespondingSourceObject: {fileID: 0}
  m_PrefabInstance: {fileID: 0}
  m_PrefabAsset: {fileID: 0}
  serializedVersion: 6
  m_Component:
  - component: {fileID: 8699463273701037552}
  m_Layer: 0
  m_Name: spine.003
  m_TagString: Untagged
  m_Icon: {fileID: 0}
  m_NavMeshLayer: 0
  m_StaticEditorFlags: 0
  m_IsActive: 1
--- !u!4 &8699463273701037552
Transform:
  m_ObjectHideFlags: 0
  m_CorrespondingSourceObject: {fileID: 0}
  m_PrefabInstance: {fileID: 0}
  m_PrefabAsset: {fileID: 0}
  m_GameObject: {fileID: 9163688365220630347}
  m_LocalRotation: {x: 0.0016271508, y: -3.2177494e-14, z: -1.782461e-15, w: 0.9999987}
  m_LocalPosition: {x: -2.646978e-23, y: 0.16175963, z: 0.0000000027939677}
  m_LocalScale: {x: 1, y: 1, z: 1}
  m_Children:
  - {fileID: 5392137450963894000}
  - {fileID: 8771808958525792561}
  - {fileID: 133517025814392136}
  m_Father: {fileID: 3280743783688964390}
  m_RootOrder: 0
  m_LocalEulerAnglesHint: {x: 0, y: 0, z: 0}
--- !u!1001 &1120253311416088925
PrefabInstance:
  m_ObjectHideFlags: 0
  serializedVersion: 2
  m_Modification:
    m_TransformParent: {fileID: 7749343134778628953}
    m_Modifications:
    - target: {fileID: 7489813114944270409, guid: 8a4bdad876e3db749ae25467a7eb5132, type: 3}
      propertyPath: m_RootOrder
      value: 5
      objectReference: {fileID: 0}
    - target: {fileID: 7489813114944270409, guid: 8a4bdad876e3db749ae25467a7eb5132, type: 3}
      propertyPath: m_LocalScale.x
      value: 0.23333332
      objectReference: {fileID: 0}
    - target: {fileID: 7489813114944270409, guid: 8a4bdad876e3db749ae25467a7eb5132, type: 3}
      propertyPath: m_LocalScale.y
      value: 0.23333333
      objectReference: {fileID: 0}
    - target: {fileID: 7489813114944270409, guid: 8a4bdad876e3db749ae25467a7eb5132, type: 3}
      propertyPath: m_LocalScale.z
      value: 0.23333332
      objectReference: {fileID: 0}
    - target: {fileID: 7489813114944270409, guid: 8a4bdad876e3db749ae25467a7eb5132, type: 3}
      propertyPath: m_LocalPosition.x
      value: -1.2962987
      objectReference: {fileID: 0}
    - target: {fileID: 7489813114944270409, guid: 8a4bdad876e3db749ae25467a7eb5132, type: 3}
      propertyPath: m_LocalPosition.y
      value: 1.4901896
      objectReference: {fileID: 0}
    - target: {fileID: 7489813114944270409, guid: 8a4bdad876e3db749ae25467a7eb5132, type: 3}
      propertyPath: m_LocalPosition.z
      value: 0.121
      objectReference: {fileID: 0}
    - target: {fileID: 7489813114944270409, guid: 8a4bdad876e3db749ae25467a7eb5132, type: 3}
      propertyPath: m_LocalRotation.w
      value: 0.7071068
      objectReference: {fileID: 0}
    - target: {fileID: 7489813114944270409, guid: 8a4bdad876e3db749ae25467a7eb5132, type: 3}
      propertyPath: m_LocalRotation.x
      value: -0
      objectReference: {fileID: 0}
    - target: {fileID: 7489813114944270409, guid: 8a4bdad876e3db749ae25467a7eb5132, type: 3}
      propertyPath: m_LocalRotation.y
      value: 0.7071068
      objectReference: {fileID: 0}
    - target: {fileID: 7489813114944270409, guid: 8a4bdad876e3db749ae25467a7eb5132, type: 3}
      propertyPath: m_LocalRotation.z
      value: -0
      objectReference: {fileID: 0}
    - target: {fileID: 7489813114944270409, guid: 8a4bdad876e3db749ae25467a7eb5132, type: 3}
      propertyPath: m_LocalEulerAnglesHint.x
      value: 0
      objectReference: {fileID: 0}
    - target: {fileID: 7489813114944270409, guid: 8a4bdad876e3db749ae25467a7eb5132, type: 3}
      propertyPath: m_LocalEulerAnglesHint.y
      value: 90
      objectReference: {fileID: 0}
    - target: {fileID: 7489813114944270409, guid: 8a4bdad876e3db749ae25467a7eb5132, type: 3}
      propertyPath: m_LocalEulerAnglesHint.z
      value: 0
      objectReference: {fileID: 0}
    - target: {fileID: 7834849332374334195, guid: 8a4bdad876e3db749ae25467a7eb5132, type: 3}
      propertyPath: m_Name
      value: assault
      objectReference: {fileID: 0}
    - target: {fileID: 7834849332374334195, guid: 8a4bdad876e3db749ae25467a7eb5132, type: 3}
      propertyPath: m_IsActive
      value: 0
      objectReference: {fileID: 0}
    m_RemovedComponents: []
  m_SourcePrefab: {fileID: 100100000, guid: 8a4bdad876e3db749ae25467a7eb5132, type: 3}
--- !u!4 &7528568509756442900 stripped
Transform:
  m_CorrespondingSourceObject: {fileID: 7489813114944270409, guid: 8a4bdad876e3db749ae25467a7eb5132, type: 3}
  m_PrefabInstance: {fileID: 1120253311416088925}
  m_PrefabAsset: {fileID: 0}
