%YAML 1.1
%TAG !u! tag:unity3d.com,2011:
--- !u!29 &1
OcclusionCullingSettings:
  m_ObjectHideFlags: 0
  serializedVersion: 2
  m_OcclusionBakeSettings:
    smallestOccluder: 5
    smallestHole: 0.25
    backfaceThreshold: 100
  m_SceneGUID: 00000000000000000000000000000000
  m_OcclusionCullingData: {fileID: 0}
--- !u!104 &2
RenderSettings:
  m_ObjectHideFlags: 0
  serializedVersion: 9
  m_Fog: 0
  m_FogColor: {r: 0.5, g: 0.5, b: 0.5, a: 1}
  m_FogMode: 3
  m_FogDensity: 0.01
  m_LinearFogStart: 0
  m_LinearFogEnd: 300
  m_AmbientSkyColor: {r: 0.212, g: 0.227, b: 0.259, a: 1}
  m_AmbientEquatorColor: {r: 0.114, g: 0.125, b: 0.133, a: 1}
  m_AmbientGroundColor: {r: 0.047, g: 0.043, b: 0.035, a: 1}
  m_AmbientIntensity: 1
  m_AmbientMode: 0
  m_SubtractiveShadowColor: {r: 0.42, g: 0.478, b: 0.627, a: 1}
  m_SkyboxMaterial: {fileID: 2100000, guid: b7c63368cd095bd499d5e0818af66f27, type: 2}
  m_HaloStrength: 0.5
  m_FlareStrength: 1
  m_FlareFadeSpeed: 3
  m_HaloTexture: {fileID: 0}
  m_SpotCookie: {fileID: 10001, guid: 0000000000000000e000000000000000, type: 0}
  m_DefaultReflectionMode: 0
  m_DefaultReflectionResolution: 128
  m_ReflectionBounces: 1
  m_ReflectionIntensity: 1
  m_CustomReflection: {fileID: 0}
  m_Sun: {fileID: 0}
  m_IndirectSpecularColor: {r: 0.53033864, g: 0.56949186, b: 0.53805983, a: 1}
  m_UseRadianceAmbientProbe: 0
--- !u!157 &3
LightmapSettings:
  m_ObjectHideFlags: 0
  serializedVersion: 12
  m_GIWorkflowMode: 0
  m_GISettings:
    serializedVersion: 2
    m_BounceScale: 1
    m_IndirectOutputScale: 1
    m_AlbedoBoost: 1
    m_EnvironmentLightingMode: 0
    m_EnableBakedLightmaps: 1
    m_EnableRealtimeLightmaps: 1
  m_LightmapEditorSettings:
    serializedVersion: 12
    m_Resolution: 2
    m_BakeResolution: 40
    m_AtlasSize: 1024
    m_AO: 0
    m_AOMaxDistance: 1
    m_CompAOExponent: 0
    m_CompAOExponentDirect: 0
    m_ExtractAmbientOcclusion: 0
    m_Padding: 2
    m_LightmapParameters: {fileID: 0}
    m_LightmapsBakeMode: 1
    m_TextureCompression: 1
    m_FinalGather: 0
    m_FinalGatherFiltering: 1
    m_FinalGatherRayCount: 1024
    m_ReflectionCompression: 2
    m_MixedBakeMode: 1
    m_BakeBackend: 0
    m_PVRSampling: 1
    m_PVRDirectSampleCount: 32
    m_PVRSampleCount: 512
    m_PVRBounces: 2
    m_PVREnvironmentSampleCount: 512
    m_PVREnvironmentReferencePointCount: 2048
    m_PVRFilteringMode: 0
    m_PVRDenoiserTypeDirect: 0
    m_PVRDenoiserTypeIndirect: 0
    m_PVRDenoiserTypeAO: 0
    m_PVRFilterTypeDirect: 0
    m_PVRFilterTypeIndirect: 0
    m_PVRFilterTypeAO: 0
    m_PVREnvironmentMIS: 0
    m_PVRCulling: 1
    m_PVRFilteringGaussRadiusDirect: 1
    m_PVRFilteringGaussRadiusIndirect: 5
    m_PVRFilteringGaussRadiusAO: 2
    m_PVRFilteringAtrousPositionSigmaDirect: 0.5
    m_PVRFilteringAtrousPositionSigmaIndirect: 2
    m_PVRFilteringAtrousPositionSigmaAO: 1
    m_ExportTrainingData: 0
    m_TrainingDataDestination: TrainingData
    m_LightProbeSampleCountMultiplier: 4
  m_LightingDataAsset: {fileID: 0}
  m_LightingSettings: {fileID: 4890085278179872738, guid: 549360543249ec24da74e07d419f062f, type: 2}
--- !u!196 &4
NavMeshSettings:
  serializedVersion: 2
  m_ObjectHideFlags: 0
  m_BuildSettings:
    serializedVersion: 2
    agentTypeID: 0
    agentRadius: 0.5
    agentHeight: 2
    agentSlope: 45
    agentClimb: 0.4
    ledgeDropHeight: 0
    maxJumpAcrossDistance: 0
    minRegionArea: 2
    manualCellSize: 0
    cellSize: 0.16666667
    manualTileSize: 0
    tileSize: 256
    accuratePlacement: 0
    maxJobWorkers: 0
    preserveTilesOutsideBounds: 0
    debug:
      m_Flags: 0
  m_NavMeshData: {fileID: 0}
--- !u!1001 &132609881
PrefabInstance:
  m_ObjectHideFlags: 0
  serializedVersion: 2
  m_Modification:
    m_TransformParent: {fileID: 0}
    m_Modifications:
    - target: {fileID: 400000, guid: 92bad9ac7bb39fa4d9ce8fc2d181f64f, type: 3}
      propertyPath: m_LocalPosition.x
      value: 18.56
      objectReference: {fileID: 0}
    - target: {fileID: 400000, guid: 92bad9ac7bb39fa4d9ce8fc2d181f64f, type: 3}
      propertyPath: m_LocalPosition.y
      value: 1.47
      objectReference: {fileID: 0}
    - target: {fileID: 400000, guid: 92bad9ac7bb39fa4d9ce8fc2d181f64f, type: 3}
      propertyPath: m_LocalPosition.z
      value: -7
      objectReference: {fileID: 0}
    - target: {fileID: 400002, guid: 92bad9ac7bb39fa4d9ce8fc2d181f64f, type: 3}
      propertyPath: m_LocalPosition.x
      value: 5.9000015
      objectReference: {fileID: 0}
    - target: {fileID: 400002, guid: 92bad9ac7bb39fa4d9ce8fc2d181f64f, type: 3}
      propertyPath: m_LocalPosition.y
      value: 1.4337845
      objectReference: {fileID: 0}
    - target: {fileID: 400002, guid: 92bad9ac7bb39fa4d9ce8fc2d181f64f, type: 3}
      propertyPath: m_LocalPosition.z
      value: 15.310001
      objectReference: {fileID: 0}
    - target: {fileID: 400002, guid: 92bad9ac7bb39fa4d9ce8fc2d181f64f, type: 3}
      propertyPath: m_LocalRotation.w
      value: 0.47608665
      objectReference: {fileID: 0}
    - target: {fileID: 400002, guid: 92bad9ac7bb39fa4d9ce8fc2d181f64f, type: 3}
      propertyPath: m_LocalRotation.x
      value: -0.4760866
      objectReference: {fileID: 0}
    - target: {fileID: 400002, guid: 92bad9ac7bb39fa4d9ce8fc2d181f64f, type: 3}
      propertyPath: m_LocalRotation.y
      value: 0.52282065
      objectReference: {fileID: 0}
    - target: {fileID: 400002, guid: 92bad9ac7bb39fa4d9ce8fc2d181f64f, type: 3}
      propertyPath: m_LocalRotation.z
      value: 0.5228208
      objectReference: {fileID: 0}
    - target: {fileID: 400002, guid: 92bad9ac7bb39fa4d9ce8fc2d181f64f, type: 3}
      propertyPath: m_LocalEulerAnglesHint.x
      value: -89.980194
      objectReference: {fileID: 0}
    - target: {fileID: 400002, guid: 92bad9ac7bb39fa4d9ce8fc2d181f64f, type: 3}
      propertyPath: m_LocalEulerAnglesHint.y
      value: -264.6427
      objectReference: {fileID: 0}
    - target: {fileID: 400004, guid: 92bad9ac7bb39fa4d9ce8fc2d181f64f, type: 3}
      propertyPath: m_LocalPosition.x
      value: 19.71
      objectReference: {fileID: 0}
    - target: {fileID: 400004, guid: 92bad9ac7bb39fa4d9ce8fc2d181f64f, type: 3}
      propertyPath: m_LocalPosition.y
      value: 1.5599976
      objectReference: {fileID: 0}
    - target: {fileID: 400004, guid: 92bad9ac7bb39fa4d9ce8fc2d181f64f, type: 3}
      propertyPath: m_LocalPosition.z
      value: 14.57
      objectReference: {fileID: 0}
    - target: {fileID: 400004, guid: 92bad9ac7bb39fa4d9ce8fc2d181f64f, type: 3}
      propertyPath: m_LocalRotation.w
      value: 0.3516938
      objectReference: {fileID: 0}
    - target: {fileID: 400004, guid: 92bad9ac7bb39fa4d9ce8fc2d181f64f, type: 3}
      propertyPath: m_LocalRotation.x
      value: -0.35169375
      objectReference: {fileID: 0}
    - target: {fileID: 400004, guid: 92bad9ac7bb39fa4d9ce8fc2d181f64f, type: 3}
      propertyPath: m_LocalRotation.y
      value: 0.6134423
      objectReference: {fileID: 0}
    - target: {fileID: 400004, guid: 92bad9ac7bb39fa4d9ce8fc2d181f64f, type: 3}
      propertyPath: m_LocalRotation.z
      value: 0.6134424
      objectReference: {fileID: 0}
    - target: {fileID: 400004, guid: 92bad9ac7bb39fa4d9ce8fc2d181f64f, type: 3}
      propertyPath: m_LocalEulerAnglesHint.x
      value: -90
      objectReference: {fileID: 0}
    - target: {fileID: 400004, guid: 92bad9ac7bb39fa4d9ce8fc2d181f64f, type: 3}
      propertyPath: m_LocalEulerAnglesHint.y
      value: -239.65239
      objectReference: {fileID: 0}
    - target: {fileID: 400006, guid: 92bad9ac7bb39fa4d9ce8fc2d181f64f, type: 3}
      propertyPath: m_RootOrder
      value: 1
      objectReference: {fileID: 0}
    - target: {fileID: 400006, guid: 92bad9ac7bb39fa4d9ce8fc2d181f64f, type: 3}
      propertyPath: m_LocalPosition.x
      value: 65.97
      objectReference: {fileID: 0}
    - target: {fileID: 400006, guid: 92bad9ac7bb39fa4d9ce8fc2d181f64f, type: 3}
      propertyPath: m_LocalPosition.y
      value: 72.89
      objectReference: {fileID: 0}
    - target: {fileID: 400006, guid: 92bad9ac7bb39fa4d9ce8fc2d181f64f, type: 3}
      propertyPath: m_LocalPosition.z
      value: 9.143982
      objectReference: {fileID: 0}
    - target: {fileID: 400006, guid: 92bad9ac7bb39fa4d9ce8fc2d181f64f, type: 3}
      propertyPath: m_LocalRotation.w
      value: 1
      objectReference: {fileID: 0}
    - target: {fileID: 400006, guid: 92bad9ac7bb39fa4d9ce8fc2d181f64f, type: 3}
      propertyPath: m_LocalRotation.x
      value: 0
      objectReference: {fileID: 0}
    - target: {fileID: 400006, guid: 92bad9ac7bb39fa4d9ce8fc2d181f64f, type: 3}
      propertyPath: m_LocalRotation.y
      value: 0
      objectReference: {fileID: 0}
    - target: {fileID: 400006, guid: 92bad9ac7bb39fa4d9ce8fc2d181f64f, type: 3}
      propertyPath: m_LocalRotation.z
      value: 0
      objectReference: {fileID: 0}
    m_RemovedComponents: []
  m_SourcePrefab: {fileID: 100100000, guid: 92bad9ac7bb39fa4d9ce8fc2d181f64f, type: 3}
--- !u!1 &443836757
GameObject:
  m_ObjectHideFlags: 0
  m_CorrespondingSourceObject: {fileID: 0}
  m_PrefabInstance: {fileID: 0}
  m_PrefabAsset: {fileID: 0}
  serializedVersion: 6
  m_Component:
  - component: {fileID: 443836759}
  - component: {fileID: 443836758}
  m_Layer: 0
  m_Name: Directional Light
  m_TagString: Untagged
  m_Icon: {fileID: 0}
  m_NavMeshLayer: 0
  m_StaticEditorFlags: 0
  m_IsActive: 1
--- !u!108 &443836758
Light:
  m_ObjectHideFlags: 0
  m_CorrespondingSourceObject: {fileID: 0}
  m_PrefabInstance: {fileID: 0}
  m_PrefabAsset: {fileID: 0}
  m_GameObject: {fileID: 443836757}
  m_Enabled: 1
  serializedVersion: 10
  m_Type: 1
  m_Shape: 0
  m_Color: {r: 1, g: 0.6563895, b: 0.43382353, a: 1}
  m_Intensity: 1.72
  m_Range: 10
  m_SpotAngle: 30
  m_InnerSpotAngle: 21.80208
  m_CookieSize: 10
  m_Shadows:
    m_Type: 2
    m_Resolution: -1
    m_CustomResolution: -1
    m_Strength: 1
    m_Bias: 0.05
    m_NormalBias: 0.4
    m_NearPlane: 0.2
    m_CullingMatrixOverride:
      e00: 1
      e01: 0
      e02: 0
      e03: 0
      e10: 0
      e11: 1
      e12: 0
      e13: 0
      e20: 0
      e21: 0
      e22: 1
      e23: 0
      e30: 0
      e31: 0
      e32: 0
      e33: 1
    m_UseCullingMatrixOverride: 0
  m_Cookie: {fileID: 0}
  m_DrawHalo: 0
  m_Flare: {fileID: 0}
  m_RenderMode: 0
  m_CullingMask:
    serializedVersion: 2
    m_Bits: 4294967295
  m_RenderingLayerMask: 1
  m_Lightmapping: 4
  m_LightShadowCasterMode: 0
  m_AreaSize: {x: 1, y: 1}
  m_BounceIntensity: 1.46
  m_ColorTemperature: 6570
  m_UseColorTemperature: 0
  m_BoundingSphereOverride: {x: 0, y: 0, z: 0, w: 0}
  m_UseBoundingSphereOverride: 0
  m_UseViewFrustumForShadowCasterCull: 1
  m_ShadowRadius: 0
  m_ShadowAngle: 0
--- !u!4 &443836759
Transform:
  m_ObjectHideFlags: 0
  m_CorrespondingSourceObject: {fileID: 0}
  m_PrefabInstance: {fileID: 0}
  m_PrefabAsset: {fileID: 0}
  m_GameObject: {fileID: 443836757}
  m_LocalRotation: {x: 0.3329439, y: -0.43208998, z: 0.17554142, w: 0.8195315}
  m_LocalPosition: {x: 0, y: 3, z: 0}
  m_LocalScale: {x: 1, y: 1, z: 1}
  m_Children: []
  m_Father: {fileID: 0}
  m_RootOrder: 3
  m_LocalEulerAnglesHint: {x: 44.219997, y: -55.6, z: 0}
--- !u!1 &1178175599
GameObject:
  m_ObjectHideFlags: 0
  m_CorrespondingSourceObject: {fileID: 0}
  m_PrefabInstance: {fileID: 0}
  m_PrefabAsset: {fileID: 0}
  serializedVersion: 6
  m_Component:
  - component: {fileID: 1178175604}
  - component: {fileID: 1178175603}
  - component: {fileID: 1178175601}
  - component: {fileID: 1178175600}
  m_Layer: 0
  m_Name: Main Camera
  m_TagString: MainCamera
  m_Icon: {fileID: 0}
  m_NavMeshLayer: 0
  m_StaticEditorFlags: 0
  m_IsActive: 1
--- !u!81 &1178175600
AudioListener:
  m_ObjectHideFlags: 0
  m_CorrespondingSourceObject: {fileID: 0}
  m_PrefabInstance: {fileID: 0}
  m_PrefabAsset: {fileID: 0}
  m_GameObject: {fileID: 1178175599}
  m_Enabled: 1
--- !u!124 &1178175601
Behaviour:
  m_ObjectHideFlags: 0
  m_CorrespondingSourceObject: {fileID: 0}
  m_PrefabInstance: {fileID: 0}
  m_PrefabAsset: {fileID: 0}
  m_GameObject: {fileID: 1178175599}
  m_Enabled: 1
--- !u!20 &1178175603
Camera:
  m_ObjectHideFlags: 0
  m_CorrespondingSourceObject: {fileID: 0}
  m_PrefabInstance: {fileID: 0}
  m_PrefabAsset: {fileID: 0}
  m_GameObject: {fileID: 1178175599}
  m_Enabled: 1
  serializedVersion: 2
  m_ClearFlags: 1
  m_BackGroundColor: {r: 0.19215687, g: 0.3019608, b: 0.4745098, a: 0.019607844}
  m_projectionMatrixMode: 1
  m_GateFitMode: 2
  m_FOVAxisMode: 0
  m_SensorSize: {x: 36, y: 24}
  m_LensShift: {x: 0, y: 0}
  m_FocalLength: 50
  m_NormalizedViewPortRect:
    serializedVersion: 2
    x: 0
    y: 0
    width: 1
    height: 1
  near clip plane: 0.3
  far clip plane: 1000
  field of view: 60
  orthographic: 1
  orthographic size: 16
  m_Depth: -1
  m_CullingMask:
    serializedVersion: 2
    m_Bits: 4294967295
  m_RenderingPath: -1
  m_TargetTexture: {fileID: 0}
  m_TargetDisplay: 0
  m_TargetEye: 3
  m_HDR: 0
  m_AllowMSAA: 1
  m_AllowDynamicResolution: 0
  m_ForceIntoRT: 0
  m_OcclusionCulling: 1
  m_StereoConvergence: 10
  m_StereoSeparation: 0.022
--- !u!4 &1178175604
Transform:
  m_ObjectHideFlags: 0
  m_CorrespondingSourceObject: {fileID: 0}
  m_PrefabInstance: {fileID: 0}
  m_PrefabAsset: {fileID: 0}
  m_GameObject: {fileID: 1178175599}
  m_LocalRotation: {x: 0.23014261, y: 0.43267366, z: -0.11524688, w: 0.864029}
  m_LocalPosition: {x: 60, y: 86.6, z: 3.7}
  m_LocalScale: {x: 1, y: 1, z: 1}
  m_Children: []
  m_Father: {fileID: 0}
  m_RootOrder: 2
  m_LocalEulerAnglesHint: {x: 29.83, y: 53.199997, z: 0}
--- !u!1001 &6262285123024020085
PrefabInstance:
  m_ObjectHideFlags: 0
  serializedVersion: 2
  m_Modification:
    m_TransformParent: {fileID: 0}
    m_Modifications:
    - target: {fileID: 6262285122276589264, guid: b8625d3ed53504c4089b458981258b63, type: 3}
      propertyPath: m_RootOrder
      value: 0
      objectReference: {fileID: 0}
    - target: {fileID: 6262285122276589264, guid: b8625d3ed53504c4089b458981258b63, type: 3}
      propertyPath: m_LocalPosition.x
      value: 68.1
      objectReference: {fileID: 0}
    - target: {fileID: 6262285122276589264, guid: b8625d3ed53504c4089b458981258b63, type: 3}
      propertyPath: m_LocalPosition.y
      value: 72
      objectReference: {fileID: 0}
    - target: {fileID: 6262285122276589264, guid: b8625d3ed53504c4089b458981258b63, type: 3}
      propertyPath: m_LocalPosition.z
      value: 12
      objectReference: {fileID: 0}
    - target: {fileID: 6262285122276589264, guid: b8625d3ed53504c4089b458981258b63, type: 3}
      propertyPath: m_LocalRotation.w
      value: 1
      objectReference: {fileID: 0}
    - target: {fileID: 6262285122276589264, guid: b8625d3ed53504c4089b458981258b63, type: 3}
      propertyPath: m_LocalRotation.x
      value: 0
      objectReference: {fileID: 0}
    - target: {fileID: 6262285122276589264, guid: b8625d3ed53504c4089b458981258b63, type: 3}
      propertyPath: m_LocalRotation.y
      value: 0
      objectReference: {fileID: 0}
    - target: {fileID: 6262285122276589264, guid: b8625d3ed53504c4089b458981258b63, type: 3}
      propertyPath: m_LocalRotation.z
      value: 0
      objectReference: {fileID: 0}
    - target: {fileID: 6262285122276589264, guid: b8625d3ed53504c4089b458981258b63, type: 3}
      propertyPath: m_LocalEulerAnglesHint.x
      value: 0
      objectReference: {fileID: 0}
    - target: {fileID: 6262285122276589264, guid: b8625d3ed53504c4089b458981258b63, type: 3}
      propertyPath: m_LocalEulerAnglesHint.y
      value: 0
      objectReference: {fileID: 0}
    - target: {fileID: 6262285122276589264, guid: b8625d3ed53504c4089b458981258b63, type: 3}
      propertyPath: m_LocalEulerAnglesHint.z
      value: 0
      objectReference: {fileID: 0}
    - target: {fileID: 6262285122276589265, guid: b8625d3ed53504c4089b458981258b63, type: 3}
      propertyPath: m_Name
      value: NaturePark
      objectReference: {fileID: 0}
    m_RemovedComponents: []
  m_SourcePrefab: {fileID: 100100000, guid: b8625d3ed53504c4089b458981258b63, type: 3}
